file_image, manual_annot
Patient_65_66009/Subregion_0/65_66009_0_0_10.png, 1
Patient_65_66009/Subregion_0/65_66009_0_0_11.png, 1
Patient_65_66009/Subregion_0/65_66009_0_0_12.png, 1
Patient_65_66009/Subregion_0/65_66009_0_0_13.png, 1
Patient_65_66009/Subregion_0/65_66009_0_0_8.png, 1
Patient_65_66009/Subregion_0/65_66009_0_0_9.png, 1
Patient_65_66009/Subregion_0/65_66009_0_1_11.png, 1
Patient_65_66009/Subregion_0/65_66009_0_1_12.png, 1
Patient_65_66009/Subregion_0/65_66009_0_1_13.png, 1
Patient_65_66009/Subregion_0/65_66009_0_1_8.png, 1
Patient_65_66009/Subregion_0/65_66009_0_1_9.png, 1
Patient_65_66009/Subregion_0/65_66009_0_2_11.png, 1
Patient_65_66009/Subregion_0/65_66009_0_2_12.png, 1
Patient_65_66009/Subregion_0/65_66009_0_2_5.png, 1
Patient_65_66009/Subregion_0/65_66009_0_2_6.png, 1
Patient_65_66009/Subregion_0/65_66009_0_2_7.png, 1
Patient_65_66009/Subregion_0/65_66009_0_2_8.png, 1
Patient_65_66009/Subregion_0/65_66009_0_2_9.png, 1
Patient_65_66009/Subregion_0/65_66009_0_3_4.png, 1
Patient_65_66009/Subregion_0/65_66009_0_3_5.png, 1
Patient_65_66009/Subregion_0/65_66009_0_3_6.png, 1
Patient_65_66009/Subregion_0/65_66009_0_3_7.png, 1
Patient_65_66009/Subregion_0/65_66009_0_3_8.png, 1
Patient_65_66009/Subregion_0/65_66009_0_3_9.png, 1
Patient_65_66009/Subregion_0/65_66009_0_4_3.png, 1
Patient_65_66009/Subregion_0/65_66009_0_4_4.png, 1
Patient_65_66009/Subregion_0/65_66009_0_4_5.png, 1
Patient_65_66009/Subregion_0/65_66009_0_4_6.png, 1
Patient_65_66009/Subregion_0/65_66009_0_4_7.png, 1
Patient_65_66009/Subregion_0/65_66009_0_4_8.png, 1
Patient_65_66009/Subregion_0/65_66009_0_5_3.png, 1
Patient_65_66009/Subregion_0/65_66009_0_5_4.png, 1
Patient_65_66009/Subregion_0/65_66009_0_5_5.png, 1
Patient_65_66009/Subregion_0/65_66009_0_5_6.png, 1
Patient_65_66009/Subregion_0/65_66009_0_5_7.png, 1
Patient_65_66009/Subregion_0/65_66009_0_6_1.png, 1
Patient_65_66009/Subregion_0/65_66009_0_6_3.png, 1
Patient_65_66009/Subregion_0/65_66009_0_6_4.png, 1
Patient_65_66009/Subregion_0/65_66009_0_6_5.png, 1
Patient_65_66009/Subregion_0/65_66009_0_6_6.png, 1
Patient_65_66009/Subregion_0/65_66009_0_7_1.png, 1
Patient_65_66009/Subregion_0/65_66009_0_7_2.png, 1
Patient_65_66009/Subregion_0/65_66009_0_7_3.png, 1
Patient_65_66009/Subregion_0/65_66009_0_7_4.png, 1
Patient_65_66009/Subregion_0/65_66009_0_7_5.png, 1
Patient_65_66009/Subregion_0/65_66009_0_7_6.png, 1
Patient_65_66009/Subregion_0/65_66009_0_8_1.png, 1
Patient_65_66009/Subregion_0/65_66009_0_8_2.png, 1
Patient_65_66009/Subregion_0/65_66009_0_8_3.png, 1
Patient_65_66009/Subregion_0/65_66009_0_8_4.png, 1
Patient_65_66009/Subregion_0/65_66009_0_9_2.png, 1
Patient_65_66009/Subregion_0/65_66009_0_9_3.png, 1
Patient_65_66009/Subregion_0/65_66009_0_9_4.png, 1
Patient_65_66009/Subregion_1/65_66009_1_0_10.png, 1
Patient_65_66009/Subregion_1/65_66009_1_0_11.png, 1
Patient_65_66009/Subregion_1/65_66009_1_10_0.png, 1
Patient_65_66009/Subregion_1/65_66009_1_10_1.png, 1
Patient_65_66009/Subregion_1/65_66009_1_11_0.png, 1
Patient_65_66009/Subregion_1/65_66009_1_11_1.png, 1
Patient_65_66009/Subregion_1/65_66009_1_2_6.png, 1
Patient_65_66009/Subregion_1/65_66009_1_2_7.png, 1
Patient_65_66009/Subregion_1/65_66009_1_2_8.png, 1
Patient_65_66009/Subregion_1/65_66009_1_3_4.png, 1
Patient_65_66009/Subregion_1/65_66009_1_3_5.png, 1
Patient_65_66009/Subregion_1/65_66009_1_3_6.png, 1
Patient_65_66009/Subregion_1/65_66009_1_3_7.png, 1
Patient_65_66009/Subregion_1/65_66009_1_3_8.png, 1
Patient_65_66009/Subregion_1/65_66009_1_4_2.png, 1
Patient_65_66009/Subregion_1/65_66009_1_4_3.png, 1
Patient_65_66009/Subregion_1/65_66009_1_4_4.png, 1
Patient_65_66009/Subregion_1/65_66009_1_4_5.png, 1
Patient_65_66009/Subregion_1/65_66009_1_4_6.png, 1
Patient_65_66009/Subregion_1/65_66009_1_4_7.png, 1
Patient_65_66009/Subregion_1/65_66009_1_5_1.png, 1
Patient_65_66009/Subregion_1/65_66009_1_5_3.png, 1
Patient_65_66009/Subregion_1/65_66009_1_5_4.png, 1
Patient_65_66009/Subregion_1/65_66009_1_5_5.png, 1
Patient_65_66009/Subregion_1/65_66009_1_5_6.png, 1
Patient_65_66009/Subregion_1/65_66009_1_5_7.png, 1
Patient_65_66009/Subregion_1/65_66009_1_6_1.png, 1
Patient_65_66009/Subregion_1/65_66009_1_6_2.png, 1
Patient_65_66009/Subregion_1/65_66009_1_6_3.png, 1
Patient_65_66009/Subregion_1/65_66009_1_6_4.png, 1
Patient_65_66009/Subregion_1/65_66009_1_6_5.png, 1
Patient_65_66009/Subregion_1/65_66009_1_6_6.png, 1
Patient_65_66009/Subregion_1/65_66009_1_7_0.png, 1
Patient_65_66009/Subregion_1/65_66009_1_7_1.png, 1
Patient_65_66009/Subregion_1/65_66009_1_7_2.png, 1
Patient_65_66009/Subregion_1/65_66009_1_7_3.png, 1
Patient_65_66009/Subregion_1/65_66009_1_7_4.png, 1
Patient_65_66009/Subregion_1/65_66009_1_7_5.png, 1
Patient_65_66009/Subregion_1/65_66009_1_8_0.png, 1
Patient_65_66009/Subregion_1/65_66009_1_8_1.png, 1
Patient_65_66009/Subregion_1/65_66009_1_8_2.png, 1
Patient_65_66009/Subregion_1/65_66009_1_8_4.png, 1
Patient_65_66009/Subregion_1/65_66009_1_9_0.png, 1
Patient_65_66009/Subregion_1/65_66009_1_9_1.png, 1
Patient_65_66009/Subregion_1/65_66009_1_9_2.png, 1
Patient_65_66009/Subregion_1/65_66009_1_9_3.png, 1
Patient_65_66009/Subregion_2/65_66009_2_2_1.png, 1
Patient_65_66009/Subregion_2/65_66009_2_2_2.png, 1
Patient_65_66009/Subregion_2/65_66009_2_2_3.png, 1
Patient_65_66009/Subregion_2/65_66009_2_3_1.png, 1
Patient_65_66009/Subregion_2/65_66009_2_3_2.png, 1
Patient_65_66009/Subregion_2/65_66009_2_3_3.png, 1
Patient_65_66009/Subregion_2/65_66009_2_4_0.png, 1
Patient_65_66009/Subregion_2/65_66009_2_4_1.png, 1
Patient_65_66009/Subregion_2/65_66009_2_4_2.png, 1
Patient_65_66009/Subregion_2/65_66009_2_5_1.png, 1
Patient_65_66009/Subregion_2/65_66009_2_5_2.png, 1
Patient_65_66009/Subregion_3/65_66009_3_0_4.png, 1
Patient_65_66009/Subregion_3/65_66009_3_0_5.png, 1
Patient_65_66009/Subregion_3/65_66009_3_0_6.png, 1
Patient_65_66009/Subregion_3/65_66009_3_0_7.png, 1
Patient_65_66009/Subregion_3/65_66009_3_0_8.png, 1
Patient_65_66009/Subregion_3/65_66009_3_1_4.png, 1
Patient_65_66009/Subregion_3/65_66009_3_1_5.png, 1
Patient_65_66009/Subregion_3/65_66009_3_1_6.png, 1
Patient_65_66009/Subregion_3/65_66009_3_1_7.png, 1
Patient_65_66009/Subregion_3/65_66009_3_2_3.png, 1
Patient_65_66009/Subregion_3/65_66009_3_2_4.png, 1
Patient_65_66009/Subregion_3/65_66009_3_2_5.png, 1
Patient_65_66009/Subregion_3/65_66009_3_2_6.png, 1
Patient_65_66009/Subregion_3/65_66009_3_2_7.png, 1
Patient_65_66009/Subregion_3/65_66009_3_3_1.png, 1
Patient_65_66009/Subregion_3/65_66009_3_3_2.png, 1
Patient_65_66009/Subregion_3/65_66009_3_3_3.png, 1
Patient_65_66009/Subregion_3/65_66009_3_3_4.png, 1
Patient_65_66009/Subregion_3/65_66009_3_3_5.png, 1
Patient_65_66009/Subregion_3/65_66009_3_3_6.png, 1
Patient_65_66009/Subregion_3/65_66009_3_4_1.png, 1
Patient_65_66009/Subregion_3/65_66009_3_4_2.png, 1
Patient_65_66009/Subregion_3/65_66009_3_4_3.png, 1
Patient_65_66009/Subregion_3/65_66009_3_4_4.png, 1
Patient_65_66009/Subregion_3/65_66009_3_4_5.png, 1
Patient_65_66009/Subregion_3/65_66009_3_5_0.png, 1
Patient_65_66009/Subregion_3/65_66009_3_5_1.png, 1
Patient_65_66009/Subregion_3/65_66009_3_5_2.png, 1
Patient_65_66009/Subregion_3/65_66009_3_5_3.png, 1
Patient_65_66009/Subregion_3/65_66009_3_5_4.png, 1
Patient_65_66009/Subregion_3/65_66009_3_6_0.png, 1
Patient_65_66009/Subregion_3/65_66009_3_6_1.png, 1
Patient_65_66009/Subregion_3/65_66009_3_6_2.png, 1
Patient_65_66009/Subregion_3/65_66009_3_6_3.png, 1
Patient_65_66009/Subregion_3/65_66009_3_7_0.png, 1
Patient_65_66009/Subregion_3/65_66009_3_7_1.png, 1
Patient_65_66009/Subregion_4/65_66009_4_0_3.png, 1
Patient_65_66009/Subregion_4/65_66009_4_0_4.png, 1
Patient_65_66009/Subregion_4/65_66009_4_0_5.png, 1
Patient_65_66009/Subregion_4/65_66009_4_0_6.png, 1
Patient_65_66009/Subregion_4/65_66009_4_0_7.png, 1
Patient_65_66009/Subregion_4/65_66009_4_0_8.png, 1
Patient_65_66009/Subregion_4/65_66009_4_1_3.png, 1
Patient_65_66009/Subregion_4/65_66009_4_1_4.png, 1
Patient_65_66009/Subregion_4/65_66009_4_1_5.png, 1
Patient_65_66009/Subregion_4/65_66009_4_1_6.png, 1
Patient_65_66009/Subregion_4/65_66009_4_1_7.png, 1
Patient_65_66009/Subregion_4/65_66009_4_1_8.png, 1
Patient_65_66009/Subregion_4/65_66009_4_2_2.png, 1
Patient_65_66009/Subregion_4/65_66009_4_2_3.png, 1
Patient_65_66009/Subregion_4/65_66009_4_2_4.png, 1
Patient_65_66009/Subregion_4/65_66009_4_2_5.png, 1
Patient_65_66009/Subregion_4/65_66009_4_2_6.png, 1
Patient_65_66009/Subregion_4/65_66009_4_2_7.png, 1
Patient_65_66009/Subregion_4/65_66009_4_3_3.png, 1
Patient_65_66009/Subregion_4/65_66009_4_3_4.png, 1
Patient_65_66009/Subregion_4/65_66009_4_3_5.png, 1
Patient_65_66009/Subregion_4/65_66009_4_4_0.png, 1
Patient_65_66009/Subregion_4/65_66009_4_4_1.png, 1
Patient_65_66009/Subregion_4/65_66009_4_4_2.png, 1
Patient_65_66009/Subregion_4/65_66009_4_4_3.png, 1
Patient_65_66009/Subregion_4/65_66009_4_4_4.png, 1
Patient_65_66009/Subregion_4/65_66009_4_5_0.png, 1
Patient_65_66009/Subregion_4/65_66009_4_5_1.png, 1
Patient_65_66009/Subregion_4/65_66009_4_5_2.png, 1
Patient_65_66009/Subregion_4/65_66009_4_5_3.png, 1
Patient_65_66009/Subregion_5/65_66009_5_0_11.png, 1
Patient_65_66009/Subregion_5/65_66009_5_0_12.png, 1
Patient_65_66009/Subregion_5/65_66009_5_1_10.png, 1
Patient_65_66009/Subregion_5/65_66009_5_1_11.png, 1
Patient_65_66009/Subregion_5/65_66009_5_1_12.png, 1
Patient_65_66009/Subregion_5/65_66009_5_1_9.png, 1
Patient_65_66009/Subregion_5/65_66009_5_10_2.png, 1
Patient_65_66009/Subregion_5/65_66009_5_10_3.png, 1
Patient_65_66009/Subregion_5/65_66009_5_2_10.png, 1
Patient_65_66009/Subregion_5/65_66009_5_2_11.png, 1
Patient_65_66009/Subregion_5/65_66009_5_2_12.png, 1
Patient_65_66009/Subregion_5/65_66009_5_2_8.png, 1
Patient_65_66009/Subregion_5/65_66009_5_2_9.png, 1
Patient_65_66009/Subregion_5/65_66009_5_3_10.png, 1
Patient_65_66009/Subregion_5/65_66009_5_3_11.png, 1
Patient_65_66009/Subregion_5/65_66009_5_3_12.png, 1
Patient_65_66009/Subregion_5/65_66009_5_3_6.png, 1
Patient_65_66009/Subregion_5/65_66009_5_3_7.png, 1
Patient_65_66009/Subregion_5/65_66009_5_3_8.png, 1
Patient_65_66009/Subregion_5/65_66009_5_3_9.png, 1
Patient_65_66009/Subregion_5/65_66009_5_4_11.png, 1
Patient_65_66009/Subregion_5/65_66009_5_4_5.png, 1
Patient_65_66009/Subregion_5/65_66009_5_4_6.png, 1
Patient_65_66009/Subregion_5/65_66009_5_4_7.png, 1
Patient_65_66009/Subregion_5/65_66009_5_4_8.png, 1
Patient_65_66009/Subregion_5/65_66009_5_4_9.png, 1
Patient_65_66009/Subregion_5/65_66009_5_5_10.png, 1
Patient_65_66009/Subregion_5/65_66009_5_5_11.png, 1
Patient_65_66009/Subregion_5/65_66009_5_5_4.png, 1
Patient_65_66009/Subregion_5/65_66009_5_5_5.png, 1
Patient_65_66009/Subregion_5/65_66009_5_5_6.png, 1
Patient_65_66009/Subregion_5/65_66009_5_5_7.png, 1
Patient_65_66009/Subregion_5/65_66009_5_5_8.png, 1
Patient_65_66009/Subregion_5/65_66009_5_5_9.png, 1
Patient_65_66009/Subregion_5/65_66009_5_6_3.png, 1
Patient_65_66009/Subregion_5/65_66009_5_6_4.png, 1
Patient_65_66009/Subregion_5/65_66009_5_6_5.png, 1
Patient_65_66009/Subregion_5/65_66009_5_6_6.png, 1
Patient_65_66009/Subregion_5/65_66009_5_6_7.png, 1
Patient_65_66009/Subregion_5/65_66009_5_6_8.png, 1
Patient_65_66009/Subregion_5/65_66009_5_7_3.png, 1
Patient_65_66009/Subregion_5/65_66009_5_7_4.png, 1
Patient_65_66009/Subregion_5/65_66009_5_7_5.png, 1
Patient_65_66009/Subregion_5/65_66009_5_7_6.png, 1
Patient_65_66009/Subregion_5/65_66009_5_7_7.png, 1
Patient_65_66009/Subregion_5/65_66009_5_8_3.png, 1
Patient_65_66009/Subregion_5/65_66009_5_8_4.png, 1
Patient_65_66009/Subregion_5/65_66009_5_8_5.png, 1
Patient_65_66009/Subregion_5/65_66009_5_8_6.png, 1
Patient_65_66009/Subregion_5/65_66009_5_9_1.png, 1
Patient_65_66009/Subregion_5/65_66009_5_9_3.png, 1
Patient_65_66009/Subregion_5/65_66009_5_9_4.png, 1
Patient_65_66009/Subregion_5/65_66009_5_9_5.png, 1
Patient_65_66009/Subregion_6/65_66009_6_2_1.png, 1
Patient_65_66009/Subregion_6/65_66009_6_2_2.png, 1
Patient_65_66009/Subregion_6/65_66009_6_2_3.png, 1
Patient_65_66009/Subregion_6/65_66009_6_2_4.png, 1
Patient_65_66009/Subregion_6/65_66009_6_3_1.png, 1
Patient_65_66009/Subregion_6/65_66009_6_3_2.png, 1
Patient_65_66009/Subregion_6/65_66009_6_4_1.png, 1
Patient_65_66009/Subregion_6/65_66009_6_4_2.png, 1
