file_image, manual_annot
Patient_41_42009/Subregion_0/41_42009_0_0_0.png, 0
Patient_41_42009/Subregion_0/41_42009_0_0_1.png, 0
Patient_41_42009/Subregion_0/41_42009_0_0_10.png, 0
Patient_41_42009/Subregion_0/41_42009_0_0_11.png, 0
Patient_41_42009/Subregion_0/41_42009_0_0_2.png, 0
Patient_41_42009/Subregion_0/41_42009_0_0_3.png, 0
Patient_41_42009/Subregion_0/41_42009_0_0_4.png, 0
Patient_41_42009/Subregion_0/41_42009_0_0_5.png, 0
Patient_41_42009/Subregion_0/41_42009_0_0_6.png, 0
Patient_41_42009/Subregion_0/41_42009_0_0_7.png, 0
Patient_41_42009/Subregion_0/41_42009_0_0_8.png, 0
Patient_41_42009/Subregion_0/41_42009_0_0_9.png, 0
Patient_41_42009/Subregion_0/41_42009_0_1_0.png, 0
Patient_41_42009/Subregion_0/41_42009_0_1_1.png, 0
Patient_41_42009/Subregion_0/41_42009_0_1_10.png, 0
Patient_41_42009/Subregion_0/41_42009_0_1_11.png, 0
Patient_41_42009/Subregion_0/41_42009_0_1_2.png, 0
Patient_41_42009/Subregion_0/41_42009_0_1_3.png, 0
Patient_41_42009/Subregion_0/41_42009_0_1_4.png, 0
Patient_41_42009/Subregion_0/41_42009_0_1_5.png, 0
Patient_41_42009/Subregion_0/41_42009_0_1_6.png, 0
Patient_41_42009/Subregion_0/41_42009_0_1_7.png, 0
Patient_41_42009/Subregion_0/41_42009_0_1_8.png, 0
Patient_41_42009/Subregion_0/41_42009_0_1_9.png, 0
Patient_41_42009/Subregion_0/41_42009_0_2_0.png, 0
Patient_41_42009/Subregion_0/41_42009_0_2_1.png, 0
Patient_41_42009/Subregion_0/41_42009_0_2_10.png, 0
Patient_41_42009/Subregion_0/41_42009_0_2_11.png, 0
Patient_41_42009/Subregion_0/41_42009_0_2_2.png, 0
Patient_41_42009/Subregion_0/41_42009_0_2_3.png, 0
Patient_41_42009/Subregion_0/41_42009_0_2_4.png, 0
Patient_41_42009/Subregion_0/41_42009_0_2_5.png, 0
Patient_41_42009/Subregion_0/41_42009_0_2_6.png, 0
Patient_41_42009/Subregion_0/41_42009_0_2_7.png, 0
Patient_41_42009/Subregion_0/41_42009_0_2_8.png, 0
Patient_41_42009/Subregion_0/41_42009_0_3_0.png, 0
Patient_41_42009/Subregion_0/41_42009_0_3_1.png, 0
Patient_41_42009/Subregion_0/41_42009_0_3_10.png, 0
Patient_41_42009/Subregion_0/41_42009_0_3_11.png, 0
Patient_41_42009/Subregion_0/41_42009_0_3_2.png, 0
Patient_41_42009/Subregion_0/41_42009_0_3_3.png, 0
Patient_41_42009/Subregion_0/41_42009_0_3_4.png, 0
Patient_41_42009/Subregion_0/41_42009_0_3_7.png, 0
Patient_41_42009/Subregion_0/41_42009_0_3_8.png, 0
Patient_41_42009/Subregion_0/41_42009_0_3_9.png, 0
Patient_41_42009/Subregion_0/41_42009_0_4_0.png, 0
Patient_41_42009/Subregion_0/41_42009_0_4_1.png, 0
Patient_41_42009/Subregion_0/41_42009_0_4_7.png, 0
Patient_41_42009/Subregion_0/41_42009_0_4_8.png, 0
Patient_41_42009/Subregion_0/41_42009_0_4_9.png, 0
Patient_41_42009/Subregion_1/41_42009_1_0_0.png, 0
Patient_41_42009/Subregion_1/41_42009_1_0_1.png, 0
Patient_41_42009/Subregion_1/41_42009_1_0_10.png, 0
Patient_41_42009/Subregion_1/41_42009_1_0_11.png, 0
Patient_41_42009/Subregion_1/41_42009_1_0_12.png, 0
Patient_41_42009/Subregion_1/41_42009_1_0_2.png, 0
Patient_41_42009/Subregion_1/41_42009_1_0_3.png, 0
Patient_41_42009/Subregion_1/41_42009_1_0_4.png, 0
Patient_41_42009/Subregion_1/41_42009_1_0_5.png, 0
Patient_41_42009/Subregion_1/41_42009_1_0_6.png, 0
Patient_41_42009/Subregion_1/41_42009_1_0_7.png, 0
Patient_41_42009/Subregion_1/41_42009_1_0_8.png, 0
Patient_41_42009/Subregion_1/41_42009_1_0_9.png, 0
Patient_41_42009/Subregion_1/41_42009_1_1_0.png, 0
Patient_41_42009/Subregion_1/41_42009_1_1_1.png, 0
Patient_41_42009/Subregion_1/41_42009_1_1_10.png, 0
Patient_41_42009/Subregion_1/41_42009_1_1_11.png, 0
Patient_41_42009/Subregion_1/41_42009_1_1_12.png, 0
Patient_41_42009/Subregion_1/41_42009_1_1_2.png, 0
Patient_41_42009/Subregion_1/41_42009_1_1_3.png, 0
Patient_41_42009/Subregion_1/41_42009_1_1_4.png, 0
Patient_41_42009/Subregion_1/41_42009_1_1_5.png, 0
Patient_41_42009/Subregion_1/41_42009_1_1_6.png, 0
Patient_41_42009/Subregion_1/41_42009_1_1_7.png, 0
Patient_41_42009/Subregion_1/41_42009_1_1_8.png, 0
Patient_41_42009/Subregion_1/41_42009_1_1_9.png, 0
Patient_41_42009/Subregion_1/41_42009_1_10_0.png, 0
Patient_41_42009/Subregion_1/41_42009_1_10_1.png, 0
Patient_41_42009/Subregion_1/41_42009_1_10_10.png, 1
Patient_41_42009/Subregion_1/41_42009_1_10_11.png, 1
Patient_41_42009/Subregion_1/41_42009_1_10_12.png, 1
Patient_41_42009/Subregion_1/41_42009_1_10_2.png, 0
Patient_41_42009/Subregion_1/41_42009_1_10_3.png, 0
Patient_41_42009/Subregion_1/41_42009_1_10_4.png, 0
Patient_41_42009/Subregion_1/41_42009_1_10_5.png, 0
Patient_41_42009/Subregion_1/41_42009_1_10_6.png, 0
Patient_41_42009/Subregion_1/41_42009_1_10_7.png, 0
Patient_41_42009/Subregion_1/41_42009_1_10_8.png, 0
Patient_41_42009/Subregion_1/41_42009_1_11_0.png, 0
Patient_41_42009/Subregion_1/41_42009_1_11_1.png, 0
Patient_41_42009/Subregion_1/41_42009_1_11_10.png, 1
Patient_41_42009/Subregion_1/41_42009_1_11_11.png, 1
Patient_41_42009/Subregion_1/41_42009_1_11_12.png, 1
Patient_41_42009/Subregion_1/41_42009_1_11_2.png, 0
Patient_41_42009/Subregion_1/41_42009_1_11_3.png, 0
Patient_41_42009/Subregion_1/41_42009_1_11_4.png, 0
Patient_41_42009/Subregion_1/41_42009_1_11_5.png, 0
Patient_41_42009/Subregion_1/41_42009_1_11_6.png, 0
Patient_41_42009/Subregion_1/41_42009_1_11_7.png, 0
Patient_41_42009/Subregion_1/41_42009_1_11_8.png, 0
Patient_41_42009/Subregion_1/41_42009_1_11_9.png, 1
Patient_41_42009/Subregion_1/41_42009_1_12_0.png, 0
Patient_41_42009/Subregion_1/41_42009_1_12_1.png, 0
Patient_41_42009/Subregion_1/41_42009_1_12_10.png, 1
Patient_41_42009/Subregion_1/41_42009_1_12_11.png, 1
Patient_41_42009/Subregion_1/41_42009_1_12_12.png, 1
Patient_41_42009/Subregion_1/41_42009_1_12_2.png, 0
Patient_41_42009/Subregion_1/41_42009_1_12_3.png, 0
Patient_41_42009/Subregion_1/41_42009_1_12_4.png, 0
Patient_41_42009/Subregion_1/41_42009_1_12_5.png, 0
Patient_41_42009/Subregion_1/41_42009_1_12_6.png, 0
Patient_41_42009/Subregion_1/41_42009_1_12_7.png, 0
Patient_41_42009/Subregion_1/41_42009_1_12_8.png, 0
Patient_41_42009/Subregion_1/41_42009_1_12_9.png, 1
Patient_41_42009/Subregion_1/41_42009_1_13_0.png, 0
Patient_41_42009/Subregion_1/41_42009_1_13_1.png, 0
Patient_41_42009/Subregion_1/41_42009_1_13_10.png, 1
Patient_41_42009/Subregion_1/41_42009_1_13_11.png, 1
Patient_41_42009/Subregion_1/41_42009_1_13_12.png, 1
Patient_41_42009/Subregion_1/41_42009_1_13_2.png, 0
Patient_41_42009/Subregion_1/41_42009_1_13_3.png, 0
Patient_41_42009/Subregion_1/41_42009_1_13_4.png, 0
Patient_41_42009/Subregion_1/41_42009_1_13_5.png, 0
Patient_41_42009/Subregion_1/41_42009_1_13_6.png, 0
Patient_41_42009/Subregion_1/41_42009_1_13_7.png, 0
Patient_41_42009/Subregion_1/41_42009_1_13_9.png, 1
Patient_41_42009/Subregion_1/41_42009_1_14_0.png, 0
Patient_41_42009/Subregion_1/41_42009_1_14_1.png, 0
Patient_41_42009/Subregion_1/41_42009_1_14_10.png, 1
Patient_41_42009/Subregion_1/41_42009_1_14_11.png, 1
Patient_41_42009/Subregion_1/41_42009_1_14_12.png, 1
Patient_41_42009/Subregion_1/41_42009_1_14_2.png, 0
Patient_41_42009/Subregion_1/41_42009_1_14_3.png, 0
Patient_41_42009/Subregion_1/41_42009_1_14_4.png, 0
Patient_41_42009/Subregion_1/41_42009_1_14_5.png, 0
Patient_41_42009/Subregion_1/41_42009_1_14_6.png, 0
Patient_41_42009/Subregion_1/41_42009_1_14_7.png, 0
Patient_41_42009/Subregion_1/41_42009_1_14_8.png, 1
Patient_41_42009/Subregion_1/41_42009_1_14_9.png, 1
Patient_41_42009/Subregion_1/41_42009_1_15_0.png, 0
Patient_41_42009/Subregion_1/41_42009_1_15_1.png, 0
Patient_41_42009/Subregion_1/41_42009_1_15_10.png, 1
Patient_41_42009/Subregion_1/41_42009_1_15_11.png, 1
Patient_41_42009/Subregion_1/41_42009_1_15_12.png, 1
Patient_41_42009/Subregion_1/41_42009_1_15_2.png, 0
Patient_41_42009/Subregion_1/41_42009_1_15_3.png, 0
Patient_41_42009/Subregion_1/41_42009_1_15_4.png, 0
Patient_41_42009/Subregion_1/41_42009_1_15_5.png, 0
Patient_41_42009/Subregion_1/41_42009_1_15_6.png, 0
Patient_41_42009/Subregion_1/41_42009_1_15_7.png, 0
Patient_41_42009/Subregion_1/41_42009_1_15_8.png, 1
Patient_41_42009/Subregion_1/41_42009_1_15_9.png, 1
Patient_41_42009/Subregion_1/41_42009_1_16_0.png, 0
Patient_41_42009/Subregion_1/41_42009_1_16_1.png, 0
Patient_41_42009/Subregion_1/41_42009_1_16_10.png, 1
Patient_41_42009/Subregion_1/41_42009_1_16_11.png, 1
Patient_41_42009/Subregion_1/41_42009_1_16_12.png, 1
Patient_41_42009/Subregion_1/41_42009_1_16_2.png, 0
Patient_41_42009/Subregion_1/41_42009_1_16_3.png, 0
Patient_41_42009/Subregion_1/41_42009_1_16_4.png, 0
Patient_41_42009/Subregion_1/41_42009_1_16_5.png, 0
Patient_41_42009/Subregion_1/41_42009_1_16_7.png, 1
Patient_41_42009/Subregion_1/41_42009_1_16_8.png, 1
Patient_41_42009/Subregion_1/41_42009_1_16_9.png, 1
Patient_41_42009/Subregion_1/41_42009_1_17_0.png, 0
Patient_41_42009/Subregion_1/41_42009_1_17_1.png, 0
Patient_41_42009/Subregion_1/41_42009_1_17_10.png, 1
Patient_41_42009/Subregion_1/41_42009_1_17_11.png, 1
Patient_41_42009/Subregion_1/41_42009_1_17_12.png, 1
Patient_41_42009/Subregion_1/41_42009_1_17_2.png, 0
Patient_41_42009/Subregion_1/41_42009_1_17_3.png, 0
Patient_41_42009/Subregion_1/41_42009_1_17_4.png, 0
Patient_41_42009/Subregion_1/41_42009_1_17_5.png, 0
Patient_41_42009/Subregion_1/41_42009_1_17_7.png, 1
Patient_41_42009/Subregion_1/41_42009_1_17_8.png, 1
Patient_41_42009/Subregion_1/41_42009_1_17_9.png, 1
Patient_41_42009/Subregion_1/41_42009_1_2_0.png, 0
Patient_41_42009/Subregion_1/41_42009_1_2_1.png, 0
Patient_41_42009/Subregion_1/41_42009_1_2_10.png, 0
Patient_41_42009/Subregion_1/41_42009_1_2_11.png, 0
Patient_41_42009/Subregion_1/41_42009_1_2_12.png, 0
Patient_41_42009/Subregion_1/41_42009_1_2_2.png, 0
Patient_41_42009/Subregion_1/41_42009_1_2_3.png, 0
Patient_41_42009/Subregion_1/41_42009_1_2_4.png, 0
Patient_41_42009/Subregion_1/41_42009_1_2_5.png, 0
Patient_41_42009/Subregion_1/41_42009_1_2_6.png, 0
Patient_41_42009/Subregion_1/41_42009_1_2_7.png, 0
Patient_41_42009/Subregion_1/41_42009_1_2_8.png, 0
Patient_41_42009/Subregion_1/41_42009_1_2_9.png, 0
Patient_41_42009/Subregion_1/41_42009_1_3_0.png, 0
Patient_41_42009/Subregion_1/41_42009_1_3_10.png, 0
Patient_41_42009/Subregion_1/41_42009_1_3_11.png, 0
Patient_41_42009/Subregion_1/41_42009_1_3_12.png, 0
Patient_41_42009/Subregion_1/41_42009_1_3_3.png, 1
Patient_41_42009/Subregion_1/41_42009_1_3_4.png, 0
Patient_41_42009/Subregion_1/41_42009_1_3_5.png, 0
Patient_41_42009/Subregion_1/41_42009_1_3_6.png, 0
Patient_41_42009/Subregion_1/41_42009_1_3_7.png, 0
Patient_41_42009/Subregion_1/41_42009_1_3_8.png, 0
Patient_41_42009/Subregion_1/41_42009_1_3_9.png, 0
Patient_41_42009/Subregion_1/41_42009_1_4_0.png, 0
Patient_41_42009/Subregion_1/41_42009_1_4_10.png, 0
Patient_41_42009/Subregion_1/41_42009_1_4_11.png, 0
Patient_41_42009/Subregion_1/41_42009_1_4_12.png, 0
Patient_41_42009/Subregion_1/41_42009_1_4_2.png, 1
Patient_41_42009/Subregion_1/41_42009_1_4_3.png, 1
Patient_41_42009/Subregion_1/41_42009_1_4_4.png, 0
Patient_41_42009/Subregion_1/41_42009_1_4_5.png, 0
Patient_41_42009/Subregion_1/41_42009_1_4_6.png, 0
Patient_41_42009/Subregion_1/41_42009_1_4_7.png, 0
Patient_41_42009/Subregion_1/41_42009_1_4_8.png, 0
Patient_41_42009/Subregion_1/41_42009_1_4_9.png, 0
Patient_41_42009/Subregion_1/41_42009_1_5_0.png, 0
Patient_41_42009/Subregion_1/41_42009_1_5_1.png, 0
Patient_41_42009/Subregion_1/41_42009_1_5_10.png, 0
Patient_41_42009/Subregion_1/41_42009_1_5_11.png, 0
Patient_41_42009/Subregion_1/41_42009_1_5_2.png, 0
Patient_41_42009/Subregion_1/41_42009_1_5_3.png, 0
Patient_41_42009/Subregion_1/41_42009_1_5_4.png, 0
Patient_41_42009/Subregion_1/41_42009_1_5_5.png, 0
Patient_41_42009/Subregion_1/41_42009_1_5_6.png, 0
Patient_41_42009/Subregion_1/41_42009_1_5_7.png, 0
Patient_41_42009/Subregion_1/41_42009_1_5_8.png, 0
Patient_41_42009/Subregion_1/41_42009_1_5_9.png, 0
Patient_41_42009/Subregion_1/41_42009_1_6_0.png, 0
Patient_41_42009/Subregion_1/41_42009_1_6_1.png, 0
Patient_41_42009/Subregion_1/41_42009_1_6_10.png, 0
Patient_41_42009/Subregion_1/41_42009_1_6_11.png, 1
Patient_41_42009/Subregion_1/41_42009_1_6_12.png, 1
Patient_41_42009/Subregion_1/41_42009_1_6_2.png, 0
Patient_41_42009/Subregion_1/41_42009_1_6_3.png, 0
Patient_41_42009/Subregion_1/41_42009_1_6_4.png, 0
Patient_41_42009/Subregion_1/41_42009_1_6_5.png, 0
Patient_41_42009/Subregion_1/41_42009_1_6_6.png, 0
Patient_41_42009/Subregion_1/41_42009_1_6_7.png, 0
Patient_41_42009/Subregion_1/41_42009_1_6_8.png, 0
Patient_41_42009/Subregion_1/41_42009_1_7_0.png, 0
Patient_41_42009/Subregion_1/41_42009_1_7_1.png, 0
Patient_41_42009/Subregion_1/41_42009_1_7_10.png, 0
Patient_41_42009/Subregion_1/41_42009_1_7_11.png, 1
Patient_41_42009/Subregion_1/41_42009_1_7_12.png, 1
Patient_41_42009/Subregion_1/41_42009_1_7_2.png, 0
Patient_41_42009/Subregion_1/41_42009_1_7_3.png, 0
Patient_41_42009/Subregion_1/41_42009_1_7_4.png, 0
Patient_41_42009/Subregion_1/41_42009_1_7_5.png, 0
Patient_41_42009/Subregion_1/41_42009_1_7_6.png, 0
Patient_41_42009/Subregion_1/41_42009_1_7_7.png, 0
Patient_41_42009/Subregion_1/41_42009_1_7_8.png, 0
Patient_41_42009/Subregion_1/41_42009_1_7_9.png, 0
Patient_41_42009/Subregion_1/41_42009_1_8_0.png, 0
Patient_41_42009/Subregion_1/41_42009_1_8_1.png, 0
Patient_41_42009/Subregion_1/41_42009_1_8_10.png, 1
Patient_41_42009/Subregion_1/41_42009_1_8_11.png, 1
Patient_41_42009/Subregion_1/41_42009_1_8_12.png, 1
Patient_41_42009/Subregion_1/41_42009_1_8_2.png, 0
Patient_41_42009/Subregion_1/41_42009_1_8_3.png, 0
Patient_41_42009/Subregion_1/41_42009_1_8_4.png, 0
Patient_41_42009/Subregion_1/41_42009_1_8_5.png, 0
Patient_41_42009/Subregion_1/41_42009_1_8_6.png, 0
Patient_41_42009/Subregion_1/41_42009_1_8_7.png, 0
Patient_41_42009/Subregion_1/41_42009_1_8_8.png, 0
Patient_41_42009/Subregion_1/41_42009_1_8_9.png, 0
Patient_41_42009/Subregion_1/41_42009_1_9_0.png, 0
Patient_41_42009/Subregion_1/41_42009_1_9_1.png, 0
Patient_41_42009/Subregion_1/41_42009_1_9_10.png, 1
Patient_41_42009/Subregion_1/41_42009_1_9_11.png, 1
Patient_41_42009/Subregion_1/41_42009_1_9_12.png, 1
Patient_41_42009/Subregion_1/41_42009_1_9_2.png, 0
Patient_41_42009/Subregion_1/41_42009_1_9_3.png, 0
Patient_41_42009/Subregion_1/41_42009_1_9_4.png, 0
Patient_41_42009/Subregion_1/41_42009_1_9_5.png, 0
Patient_41_42009/Subregion_1/41_42009_1_9_6.png, 0
Patient_41_42009/Subregion_1/41_42009_1_9_7.png, 0
Patient_41_42009/Subregion_1/41_42009_1_9_8.png, 0
Patient_41_42009/Subregion_10/41_42009_10_0_0.png, 0
Patient_41_42009/Subregion_10/41_42009_10_0_1.png, 0
Patient_41_42009/Subregion_10/41_42009_10_0_2.png, 0
Patient_41_42009/Subregion_10/41_42009_10_0_3.png, 0
Patient_41_42009/Subregion_10/41_42009_10_0_4.png, 0
Patient_41_42009/Subregion_10/41_42009_10_0_5.png, 0
Patient_41_42009/Subregion_10/41_42009_10_0_6.png, 0
Patient_41_42009/Subregion_10/41_42009_10_0_7.png, 0
Patient_41_42009/Subregion_10/41_42009_10_1_0.png, 0
Patient_41_42009/Subregion_10/41_42009_10_1_1.png, 0
Patient_41_42009/Subregion_10/41_42009_10_1_2.png, 0
Patient_41_42009/Subregion_10/41_42009_10_1_3.png, 0
Patient_41_42009/Subregion_10/41_42009_10_1_4.png, 0
Patient_41_42009/Subregion_10/41_42009_10_1_5.png, 0
Patient_41_42009/Subregion_10/41_42009_10_1_6.png, 0
Patient_41_42009/Subregion_10/41_42009_10_1_7.png, 0
Patient_41_42009/Subregion_10/41_42009_10_2_0.png, 0
Patient_41_42009/Subregion_10/41_42009_10_2_1.png, 0
Patient_41_42009/Subregion_10/41_42009_10_2_2.png, 0
Patient_41_42009/Subregion_10/41_42009_10_2_3.png, 0
Patient_41_42009/Subregion_10/41_42009_10_2_4.png, 0
Patient_41_42009/Subregion_10/41_42009_10_2_5.png, 0
Patient_41_42009/Subregion_10/41_42009_10_2_6.png, 0
Patient_41_42009/Subregion_10/41_42009_10_2_7.png, 0
Patient_41_42009/Subregion_10/41_42009_10_3_0.png, 0
Patient_41_42009/Subregion_10/41_42009_10_3_1.png, 0
Patient_41_42009/Subregion_10/41_42009_10_3_2.png, 0
Patient_41_42009/Subregion_10/41_42009_10_3_3.png, 0
Patient_41_42009/Subregion_10/41_42009_10_3_4.png, 0
Patient_41_42009/Subregion_10/41_42009_10_3_5.png, 0
Patient_41_42009/Subregion_10/41_42009_10_3_6.png, 0
Patient_41_42009/Subregion_10/41_42009_10_3_7.png, 0
Patient_41_42009/Subregion_10/41_42009_10_4_0.png, 0
Patient_41_42009/Subregion_10/41_42009_10_4_2.png, 0
Patient_41_42009/Subregion_10/41_42009_10_4_3.png, 0
Patient_41_42009/Subregion_10/41_42009_10_4_4.png, 0
Patient_41_42009/Subregion_10/41_42009_10_4_5.png, 0
Patient_41_42009/Subregion_10/41_42009_10_4_6.png, 0
Patient_41_42009/Subregion_10/41_42009_10_4_7.png, 0
Patient_41_42009/Subregion_10/41_42009_10_5_0.png, 0
Patient_41_42009/Subregion_10/41_42009_10_5_1.png, 0
Patient_41_42009/Subregion_10/41_42009_10_5_2.png, 0
Patient_41_42009/Subregion_10/41_42009_10_5_3.png, 0
Patient_41_42009/Subregion_10/41_42009_10_5_4.png, 0
Patient_41_42009/Subregion_10/41_42009_10_5_5.png, 0
Patient_41_42009/Subregion_10/41_42009_10_5_6.png, 0
Patient_41_42009/Subregion_10/41_42009_10_5_7.png, 0
Patient_41_42009/Subregion_10/41_42009_10_6_0.png, 0
Patient_41_42009/Subregion_10/41_42009_10_6_1.png, 0
Patient_41_42009/Subregion_10/41_42009_10_6_2.png, 0
Patient_41_42009/Subregion_10/41_42009_10_6_3.png, 0
Patient_41_42009/Subregion_10/41_42009_10_6_4.png, 0
Patient_41_42009/Subregion_10/41_42009_10_6_5.png, 0
Patient_41_42009/Subregion_10/41_42009_10_6_6.png, 0
Patient_41_42009/Subregion_10/41_42009_10_6_7.png, 0
Patient_41_42009/Subregion_10/41_42009_10_7_0.png, 0
Patient_41_42009/Subregion_10/41_42009_10_7_1.png, 0
Patient_41_42009/Subregion_10/41_42009_10_7_2.png, 0
Patient_41_42009/Subregion_10/41_42009_10_7_3.png, 0
Patient_41_42009/Subregion_10/41_42009_10_7_4.png, 0
Patient_41_42009/Subregion_10/41_42009_10_7_5.png, 0
Patient_41_42009/Subregion_10/41_42009_10_7_6.png, 0
Patient_41_42009/Subregion_10/41_42009_10_7_7.png, 0
Patient_41_42009/Subregion_11/41_42009_11_0_0.png, 0
Patient_41_42009/Subregion_11/41_42009_11_0_1.png, 0
Patient_41_42009/Subregion_11/41_42009_11_0_2.png, 0
Patient_41_42009/Subregion_11/41_42009_11_0_3.png, 0
Patient_41_42009/Subregion_11/41_42009_11_0_4.png, 0
Patient_41_42009/Subregion_11/41_42009_11_0_5.png, 0
Patient_41_42009/Subregion_11/41_42009_11_1_0.png, 0
Patient_41_42009/Subregion_11/41_42009_11_1_1.png, 0
Patient_41_42009/Subregion_11/41_42009_11_1_2.png, 0
Patient_41_42009/Subregion_11/41_42009_11_1_3.png, 0
Patient_41_42009/Subregion_11/41_42009_11_1_4.png, 0
Patient_41_42009/Subregion_11/41_42009_11_1_5.png, 0
Patient_41_42009/Subregion_11/41_42009_11_2_0.png, 0
Patient_41_42009/Subregion_11/41_42009_11_2_1.png, 0
Patient_41_42009/Subregion_11/41_42009_11_2_2.png, 0
Patient_41_42009/Subregion_11/41_42009_11_2_3.png, 0
Patient_41_42009/Subregion_11/41_42009_11_2_4.png, 0
Patient_41_42009/Subregion_11/41_42009_11_2_5.png, 0
Patient_41_42009/Subregion_11/41_42009_11_3_0.png, 0
Patient_41_42009/Subregion_11/41_42009_11_3_1.png, 0
Patient_41_42009/Subregion_11/41_42009_11_3_2.png, 0
Patient_41_42009/Subregion_11/41_42009_11_3_3.png, 0
Patient_41_42009/Subregion_11/41_42009_11_3_4.png, 0
Patient_41_42009/Subregion_11/41_42009_11_3_5.png, 0
Patient_41_42009/Subregion_11/41_42009_11_4_0.png, 0
Patient_41_42009/Subregion_11/41_42009_11_4_1.png, 0
Patient_41_42009/Subregion_11/41_42009_11_4_2.png, 0
Patient_41_42009/Subregion_11/41_42009_11_4_3.png, 0
Patient_41_42009/Subregion_11/41_42009_11_4_4.png, 0
Patient_41_42009/Subregion_11/41_42009_11_4_5.png, 0
Patient_41_42009/Subregion_2/41_42009_2_0_0.png, 0
Patient_41_42009/Subregion_2/41_42009_2_0_1.png, 0
Patient_41_42009/Subregion_2/41_42009_2_0_2.png, 0
Patient_41_42009/Subregion_2/41_42009_2_0_3.png, 0
Patient_41_42009/Subregion_2/41_42009_2_0_4.png, 0
Patient_41_42009/Subregion_2/41_42009_2_0_5.png, 0
Patient_41_42009/Subregion_2/41_42009_2_0_6.png, 0
Patient_41_42009/Subregion_2/41_42009_2_1_0.png, 0
Patient_41_42009/Subregion_2/41_42009_2_1_1.png, 0
Patient_41_42009/Subregion_2/41_42009_2_1_2.png, 0
Patient_41_42009/Subregion_2/41_42009_2_1_3.png, 0
Patient_41_42009/Subregion_2/41_42009_2_1_4.png, 0
Patient_41_42009/Subregion_2/41_42009_2_1_5.png, 0
Patient_41_42009/Subregion_2/41_42009_2_1_6.png, 0
Patient_41_42009/Subregion_2/41_42009_2_2_0.png, 0
Patient_41_42009/Subregion_2/41_42009_2_2_1.png, 0
Patient_41_42009/Subregion_2/41_42009_2_2_2.png, 0
Patient_41_42009/Subregion_2/41_42009_2_2_3.png, 0
Patient_41_42009/Subregion_2/41_42009_2_2_4.png, 0
Patient_41_42009/Subregion_2/41_42009_2_2_5.png, 0
Patient_41_42009/Subregion_2/41_42009_2_2_6.png, 0
Patient_41_42009/Subregion_2/41_42009_2_3_0.png, 0
Patient_41_42009/Subregion_2/41_42009_2_3_2.png, 0
Patient_41_42009/Subregion_2/41_42009_2_3_3.png, 0
Patient_41_42009/Subregion_2/41_42009_2_3_4.png, 0
Patient_41_42009/Subregion_2/41_42009_2_4_4.png, 0
Patient_41_42009/Subregion_2/41_42009_2_4_5.png, 0
Patient_41_42009/Subregion_2/41_42009_2_4_6.png, 0
Patient_41_42009/Subregion_3/41_42009_3_0_0.png, 0
Patient_41_42009/Subregion_3/41_42009_3_0_1.png, 0
Patient_41_42009/Subregion_3/41_42009_3_0_10.png, 0
Patient_41_42009/Subregion_3/41_42009_3_0_11.png, 0
Patient_41_42009/Subregion_3/41_42009_3_0_2.png, 0
Patient_41_42009/Subregion_3/41_42009_3_0_3.png, 0
Patient_41_42009/Subregion_3/41_42009_3_0_4.png, 0
Patient_41_42009/Subregion_3/41_42009_3_0_5.png, 0
Patient_41_42009/Subregion_3/41_42009_3_0_6.png, 0
Patient_41_42009/Subregion_3/41_42009_3_0_7.png, 0
Patient_41_42009/Subregion_3/41_42009_3_0_8.png, 0
Patient_41_42009/Subregion_3/41_42009_3_0_9.png, 0
Patient_41_42009/Subregion_3/41_42009_3_1_0.png, 0
Patient_41_42009/Subregion_3/41_42009_3_1_1.png, 0
Patient_41_42009/Subregion_3/41_42009_3_1_10.png, 0
Patient_41_42009/Subregion_3/41_42009_3_1_11.png, 0
Patient_41_42009/Subregion_3/41_42009_3_1_2.png, 0
Patient_41_42009/Subregion_3/41_42009_3_1_3.png, 0
Patient_41_42009/Subregion_3/41_42009_3_1_4.png, 0
Patient_41_42009/Subregion_3/41_42009_3_1_5.png, 0
Patient_41_42009/Subregion_3/41_42009_3_1_6.png, 0
Patient_41_42009/Subregion_3/41_42009_3_1_7.png, 0
Patient_41_42009/Subregion_3/41_42009_3_1_8.png, 0
Patient_41_42009/Subregion_3/41_42009_3_1_9.png, 0
Patient_41_42009/Subregion_3/41_42009_3_10_0.png, 0
Patient_41_42009/Subregion_3/41_42009_3_10_1.png, 0
Patient_41_42009/Subregion_3/41_42009_3_10_10.png, 0
Patient_41_42009/Subregion_3/41_42009_3_10_11.png, 0
Patient_41_42009/Subregion_3/41_42009_3_10_2.png, 0
Patient_41_42009/Subregion_3/41_42009_3_10_3.png, 0
Patient_41_42009/Subregion_3/41_42009_3_10_4.png, 0
Patient_41_42009/Subregion_3/41_42009_3_10_5.png, 0
Patient_41_42009/Subregion_3/41_42009_3_10_6.png, 0
Patient_41_42009/Subregion_3/41_42009_3_10_7.png, 0
Patient_41_42009/Subregion_3/41_42009_3_10_8.png, 0
Patient_41_42009/Subregion_3/41_42009_3_10_9.png, 0
Patient_41_42009/Subregion_3/41_42009_3_11_0.png, 0
Patient_41_42009/Subregion_3/41_42009_3_11_1.png, 0
Patient_41_42009/Subregion_3/41_42009_3_11_10.png, 0
Patient_41_42009/Subregion_3/41_42009_3_11_11.png, 0
Patient_41_42009/Subregion_3/41_42009_3_11_2.png, 0
Patient_41_42009/Subregion_3/41_42009_3_11_3.png, 0
Patient_41_42009/Subregion_3/41_42009_3_11_4.png, 0
Patient_41_42009/Subregion_3/41_42009_3_11_5.png, 0
Patient_41_42009/Subregion_3/41_42009_3_11_6.png, 0
Patient_41_42009/Subregion_3/41_42009_3_11_7.png, 0
Patient_41_42009/Subregion_3/41_42009_3_11_8.png, 0
Patient_41_42009/Subregion_3/41_42009_3_11_9.png, 0
Patient_41_42009/Subregion_3/41_42009_3_2_0.png, 0
Patient_41_42009/Subregion_3/41_42009_3_2_1.png, 0
Patient_41_42009/Subregion_3/41_42009_3_2_10.png, 0
Patient_41_42009/Subregion_3/41_42009_3_2_11.png, 0
Patient_41_42009/Subregion_3/41_42009_3_2_2.png, 0
Patient_41_42009/Subregion_3/41_42009_3_2_3.png, 0
Patient_41_42009/Subregion_3/41_42009_3_2_4.png, 0
Patient_41_42009/Subregion_3/41_42009_3_2_5.png, 0
Patient_41_42009/Subregion_3/41_42009_3_2_6.png, 0
Patient_41_42009/Subregion_3/41_42009_3_2_7.png, 0
Patient_41_42009/Subregion_3/41_42009_3_2_8.png, 0
Patient_41_42009/Subregion_3/41_42009_3_2_9.png, 0
Patient_41_42009/Subregion_3/41_42009_3_3_0.png, 0
Patient_41_42009/Subregion_3/41_42009_3_3_1.png, 0
Patient_41_42009/Subregion_3/41_42009_3_3_10.png, 0
Patient_41_42009/Subregion_3/41_42009_3_3_11.png, 0
Patient_41_42009/Subregion_3/41_42009_3_3_2.png, 0
Patient_41_42009/Subregion_3/41_42009_3_3_3.png, 0
Patient_41_42009/Subregion_3/41_42009_3_3_4.png, 0
Patient_41_42009/Subregion_3/41_42009_3_3_5.png, 0
Patient_41_42009/Subregion_3/41_42009_3_3_6.png, 0
Patient_41_42009/Subregion_3/41_42009_3_3_7.png, 0
Patient_41_42009/Subregion_3/41_42009_3_3_8.png, 0
Patient_41_42009/Subregion_3/41_42009_3_3_9.png, 0
Patient_41_42009/Subregion_3/41_42009_3_4_0.png, 0
Patient_41_42009/Subregion_3/41_42009_3_4_1.png, 0
Patient_41_42009/Subregion_3/41_42009_3_4_10.png, 0
Patient_41_42009/Subregion_3/41_42009_3_4_11.png, 0
Patient_41_42009/Subregion_3/41_42009_3_4_2.png, 0
Patient_41_42009/Subregion_3/41_42009_3_4_3.png, 0
Patient_41_42009/Subregion_3/41_42009_3_4_4.png, 0
Patient_41_42009/Subregion_3/41_42009_3_4_5.png, 0
Patient_41_42009/Subregion_3/41_42009_3_4_6.png, 0
Patient_41_42009/Subregion_3/41_42009_3_4_7.png, 0
Patient_41_42009/Subregion_3/41_42009_3_4_8.png, 0
Patient_41_42009/Subregion_3/41_42009_3_4_9.png, 0
Patient_41_42009/Subregion_3/41_42009_3_5_0.png, 0
Patient_41_42009/Subregion_3/41_42009_3_5_1.png, 0
Patient_41_42009/Subregion_3/41_42009_3_5_10.png, 0
Patient_41_42009/Subregion_3/41_42009_3_5_11.png, 0
Patient_41_42009/Subregion_3/41_42009_3_5_2.png, 0
Patient_41_42009/Subregion_3/41_42009_3_5_3.png, 0
Patient_41_42009/Subregion_3/41_42009_3_5_4.png, 0
Patient_41_42009/Subregion_3/41_42009_3_5_5.png, 0
Patient_41_42009/Subregion_3/41_42009_3_5_6.png, 0
Patient_41_42009/Subregion_3/41_42009_3_5_7.png, 0
Patient_41_42009/Subregion_3/41_42009_3_5_8.png, 0
Patient_41_42009/Subregion_3/41_42009_3_5_9.png, 0
Patient_41_42009/Subregion_3/41_42009_3_6_0.png, 0
Patient_41_42009/Subregion_3/41_42009_3_6_1.png, 0
Patient_41_42009/Subregion_3/41_42009_3_6_10.png, 0
Patient_41_42009/Subregion_3/41_42009_3_6_11.png, 0
Patient_41_42009/Subregion_3/41_42009_3_6_2.png, 0
Patient_41_42009/Subregion_3/41_42009_3_6_3.png, 0
Patient_41_42009/Subregion_3/41_42009_3_6_4.png, 0
Patient_41_42009/Subregion_3/41_42009_3_6_5.png, 0
Patient_41_42009/Subregion_3/41_42009_3_6_6.png, 0
Patient_41_42009/Subregion_3/41_42009_3_6_7.png, 0
Patient_41_42009/Subregion_3/41_42009_3_6_8.png, 0
Patient_41_42009/Subregion_3/41_42009_3_6_9.png, 0
Patient_41_42009/Subregion_3/41_42009_3_7_0.png, 0
Patient_41_42009/Subregion_3/41_42009_3_7_1.png, 0
Patient_41_42009/Subregion_3/41_42009_3_7_10.png, 0
Patient_41_42009/Subregion_3/41_42009_3_7_11.png, 0
Patient_41_42009/Subregion_3/41_42009_3_7_2.png, 0
Patient_41_42009/Subregion_3/41_42009_3_7_3.png, 0
Patient_41_42009/Subregion_3/41_42009_3_7_4.png, 0
Patient_41_42009/Subregion_3/41_42009_3_7_5.png, 0
Patient_41_42009/Subregion_3/41_42009_3_7_6.png, 0
Patient_41_42009/Subregion_3/41_42009_3_7_7.png, 0
Patient_41_42009/Subregion_3/41_42009_3_7_8.png, 0
Patient_41_42009/Subregion_3/41_42009_3_7_9.png, 0
Patient_41_42009/Subregion_3/41_42009_3_8_0.png, 0
Patient_41_42009/Subregion_3/41_42009_3_8_1.png, 0
Patient_41_42009/Subregion_3/41_42009_3_8_10.png, 0
Patient_41_42009/Subregion_3/41_42009_3_8_11.png, 0
Patient_41_42009/Subregion_3/41_42009_3_8_2.png, 0
Patient_41_42009/Subregion_3/41_42009_3_8_3.png, 0
Patient_41_42009/Subregion_3/41_42009_3_8_4.png, 0
Patient_41_42009/Subregion_3/41_42009_3_8_5.png, 0
Patient_41_42009/Subregion_3/41_42009_3_8_6.png, 0
Patient_41_42009/Subregion_3/41_42009_3_8_7.png, 0
Patient_41_42009/Subregion_3/41_42009_3_8_8.png, 0
Patient_41_42009/Subregion_3/41_42009_3_8_9.png, 0
Patient_41_42009/Subregion_3/41_42009_3_9_0.png, 0
Patient_41_42009/Subregion_3/41_42009_3_9_1.png, 0
Patient_41_42009/Subregion_3/41_42009_3_9_10.png, 0
Patient_41_42009/Subregion_3/41_42009_3_9_11.png, 0
Patient_41_42009/Subregion_3/41_42009_3_9_2.png, 0
Patient_41_42009/Subregion_3/41_42009_3_9_3.png, 0
Patient_41_42009/Subregion_3/41_42009_3_9_4.png, 0
Patient_41_42009/Subregion_3/41_42009_3_9_5.png, 0
Patient_41_42009/Subregion_3/41_42009_3_9_6.png, 0
Patient_41_42009/Subregion_3/41_42009_3_9_7.png, 0
Patient_41_42009/Subregion_3/41_42009_3_9_8.png, 0
Patient_41_42009/Subregion_3/41_42009_3_9_9.png, 0
Patient_41_42009/Subregion_4/41_42009_4_0_0.png, 0
Patient_41_42009/Subregion_4/41_42009_4_0_1.png, 0
Patient_41_42009/Subregion_4/41_42009_4_0_2.png, 0
Patient_41_42009/Subregion_4/41_42009_4_0_3.png, 0
Patient_41_42009/Subregion_4/41_42009_4_0_4.png, 0
Patient_41_42009/Subregion_4/41_42009_4_0_5.png, 0
Patient_41_42009/Subregion_4/41_42009_4_0_6.png, 0
Patient_41_42009/Subregion_4/41_42009_4_0_7.png, 0
Patient_41_42009/Subregion_4/41_42009_4_0_8.png, 0
Patient_41_42009/Subregion_4/41_42009_4_0_9.png, 0
Patient_41_42009/Subregion_4/41_42009_4_1_0.png, 0
Patient_41_42009/Subregion_4/41_42009_4_1_1.png, 0
Patient_41_42009/Subregion_4/41_42009_4_1_2.png, 0
Patient_41_42009/Subregion_4/41_42009_4_1_3.png, 0
Patient_41_42009/Subregion_4/41_42009_4_1_4.png, 0
Patient_41_42009/Subregion_4/41_42009_4_1_5.png, 0
Patient_41_42009/Subregion_4/41_42009_4_1_6.png, 0
Patient_41_42009/Subregion_4/41_42009_4_1_7.png, 0
Patient_41_42009/Subregion_4/41_42009_4_1_8.png, 0
Patient_41_42009/Subregion_4/41_42009_4_1_9.png, 0
Patient_41_42009/Subregion_4/41_42009_4_10_0.png, 0
Patient_41_42009/Subregion_4/41_42009_4_10_1.png, 0
Patient_41_42009/Subregion_4/41_42009_4_10_2.png, 0
Patient_41_42009/Subregion_4/41_42009_4_10_3.png, 0
Patient_41_42009/Subregion_4/41_42009_4_10_4.png, 0
Patient_41_42009/Subregion_4/41_42009_4_10_5.png, 0
Patient_41_42009/Subregion_4/41_42009_4_10_6.png, 0
Patient_41_42009/Subregion_4/41_42009_4_10_7.png, 0
Patient_41_42009/Subregion_4/41_42009_4_10_8.png, 0
Patient_41_42009/Subregion_4/41_42009_4_10_9.png, 0
Patient_41_42009/Subregion_4/41_42009_4_11_0.png, 0
Patient_41_42009/Subregion_4/41_42009_4_11_1.png, 0
Patient_41_42009/Subregion_4/41_42009_4_11_2.png, 0
Patient_41_42009/Subregion_4/41_42009_4_11_3.png, 0
Patient_41_42009/Subregion_4/41_42009_4_11_4.png, 0
Patient_41_42009/Subregion_4/41_42009_4_11_5.png, 0
Patient_41_42009/Subregion_4/41_42009_4_11_6.png, 0
Patient_41_42009/Subregion_4/41_42009_4_11_7.png, 0
Patient_41_42009/Subregion_4/41_42009_4_11_8.png, 0
Patient_41_42009/Subregion_4/41_42009_4_11_9.png, 0
Patient_41_42009/Subregion_4/41_42009_4_12_0.png, 0
Patient_41_42009/Subregion_4/41_42009_4_12_1.png, 0
Patient_41_42009/Subregion_4/41_42009_4_12_2.png, 0
Patient_41_42009/Subregion_4/41_42009_4_12_3.png, 0
Patient_41_42009/Subregion_4/41_42009_4_12_4.png, 0
Patient_41_42009/Subregion_4/41_42009_4_12_5.png, 0
Patient_41_42009/Subregion_4/41_42009_4_12_6.png, 0
Patient_41_42009/Subregion_4/41_42009_4_12_7.png, 0
Patient_41_42009/Subregion_4/41_42009_4_12_8.png, 0
Patient_41_42009/Subregion_4/41_42009_4_12_9.png, 0
Patient_41_42009/Subregion_4/41_42009_4_13_0.png, 0
Patient_41_42009/Subregion_4/41_42009_4_13_1.png, 0
Patient_41_42009/Subregion_4/41_42009_4_13_2.png, 0
Patient_41_42009/Subregion_4/41_42009_4_13_3.png, 0
Patient_41_42009/Subregion_4/41_42009_4_13_4.png, 0
Patient_41_42009/Subregion_4/41_42009_4_13_5.png, 0
Patient_41_42009/Subregion_4/41_42009_4_13_6.png, 0
Patient_41_42009/Subregion_4/41_42009_4_13_7.png, 0
Patient_41_42009/Subregion_4/41_42009_4_13_8.png, 0
Patient_41_42009/Subregion_4/41_42009_4_13_9.png, 0
Patient_41_42009/Subregion_4/41_42009_4_2_0.png, 0
Patient_41_42009/Subregion_4/41_42009_4_2_1.png, 0
Patient_41_42009/Subregion_4/41_42009_4_2_2.png, 0
Patient_41_42009/Subregion_4/41_42009_4_2_3.png, 0
Patient_41_42009/Subregion_4/41_42009_4_2_4.png, 0
Patient_41_42009/Subregion_4/41_42009_4_2_5.png, 0
Patient_41_42009/Subregion_4/41_42009_4_2_6.png, 0
Patient_41_42009/Subregion_4/41_42009_4_2_7.png, 0
Patient_41_42009/Subregion_4/41_42009_4_2_8.png, 0
Patient_41_42009/Subregion_4/41_42009_4_2_9.png, 0
Patient_41_42009/Subregion_4/41_42009_4_3_0.png, 0
Patient_41_42009/Subregion_4/41_42009_4_3_1.png, 0
Patient_41_42009/Subregion_4/41_42009_4_3_2.png, 0
Patient_41_42009/Subregion_4/41_42009_4_3_3.png, 0
Patient_41_42009/Subregion_4/41_42009_4_3_4.png, 0
Patient_41_42009/Subregion_4/41_42009_4_3_5.png, 0
Patient_41_42009/Subregion_4/41_42009_4_3_6.png, 0
Patient_41_42009/Subregion_4/41_42009_4_3_7.png, 0
Patient_41_42009/Subregion_4/41_42009_4_3_8.png, 0
Patient_41_42009/Subregion_4/41_42009_4_3_9.png, 0
Patient_41_42009/Subregion_4/41_42009_4_4_0.png, 0
Patient_41_42009/Subregion_4/41_42009_4_4_1.png, 0
Patient_41_42009/Subregion_4/41_42009_4_4_2.png, 0
Patient_41_42009/Subregion_4/41_42009_4_4_3.png, 0
Patient_41_42009/Subregion_4/41_42009_4_4_4.png, 0
Patient_41_42009/Subregion_4/41_42009_4_4_5.png, 0
Patient_41_42009/Subregion_4/41_42009_4_4_6.png, 0
Patient_41_42009/Subregion_4/41_42009_4_4_7.png, 0
Patient_41_42009/Subregion_4/41_42009_4_4_8.png, 0
Patient_41_42009/Subregion_4/41_42009_4_4_9.png, 0
Patient_41_42009/Subregion_4/41_42009_4_5_0.png, 0
Patient_41_42009/Subregion_4/41_42009_4_5_1.png, 0
Patient_41_42009/Subregion_4/41_42009_4_5_2.png, 0
Patient_41_42009/Subregion_4/41_42009_4_5_3.png, 0
Patient_41_42009/Subregion_4/41_42009_4_5_4.png, 0
Patient_41_42009/Subregion_4/41_42009_4_5_5.png, 0
Patient_41_42009/Subregion_4/41_42009_4_5_6.png, 0
Patient_41_42009/Subregion_4/41_42009_4_5_7.png, 0
Patient_41_42009/Subregion_4/41_42009_4_5_8.png, 0
Patient_41_42009/Subregion_4/41_42009_4_5_9.png, 0
Patient_41_42009/Subregion_4/41_42009_4_6_0.png, 0
Patient_41_42009/Subregion_4/41_42009_4_6_1.png, 0
Patient_41_42009/Subregion_4/41_42009_4_6_2.png, 0
Patient_41_42009/Subregion_4/41_42009_4_6_3.png, 0
Patient_41_42009/Subregion_4/41_42009_4_6_4.png, 0
Patient_41_42009/Subregion_4/41_42009_4_6_5.png, 0
Patient_41_42009/Subregion_4/41_42009_4_6_6.png, 0
Patient_41_42009/Subregion_4/41_42009_4_6_7.png, 0
Patient_41_42009/Subregion_4/41_42009_4_6_8.png, 0
Patient_41_42009/Subregion_4/41_42009_4_6_9.png, 0
Patient_41_42009/Subregion_4/41_42009_4_7_0.png, 0
Patient_41_42009/Subregion_4/41_42009_4_7_1.png, 0
Patient_41_42009/Subregion_4/41_42009_4_7_2.png, 0
Patient_41_42009/Subregion_4/41_42009_4_7_3.png, 0
Patient_41_42009/Subregion_4/41_42009_4_7_4.png, 0
Patient_41_42009/Subregion_4/41_42009_4_7_5.png, 0
Patient_41_42009/Subregion_4/41_42009_4_7_6.png, 0
Patient_41_42009/Subregion_4/41_42009_4_7_7.png, 0
Patient_41_42009/Subregion_4/41_42009_4_7_8.png, 0
Patient_41_42009/Subregion_4/41_42009_4_7_9.png, 0
Patient_41_42009/Subregion_4/41_42009_4_8_0.png, 0
Patient_41_42009/Subregion_4/41_42009_4_8_1.png, 0
Patient_41_42009/Subregion_4/41_42009_4_8_2.png, 0
Patient_41_42009/Subregion_4/41_42009_4_8_3.png, 0
Patient_41_42009/Subregion_4/41_42009_4_8_4.png, 0
Patient_41_42009/Subregion_4/41_42009_4_8_5.png, 0
Patient_41_42009/Subregion_4/41_42009_4_8_6.png, 0
Patient_41_42009/Subregion_4/41_42009_4_8_7.png, 0
Patient_41_42009/Subregion_4/41_42009_4_8_8.png, 0
Patient_41_42009/Subregion_4/41_42009_4_8_9.png, 0
Patient_41_42009/Subregion_4/41_42009_4_9_0.png, 0
Patient_41_42009/Subregion_4/41_42009_4_9_1.png, 0
Patient_41_42009/Subregion_4/41_42009_4_9_2.png, 0
Patient_41_42009/Subregion_4/41_42009_4_9_3.png, 0
Patient_41_42009/Subregion_4/41_42009_4_9_4.png, 0
Patient_41_42009/Subregion_4/41_42009_4_9_5.png, 0
Patient_41_42009/Subregion_4/41_42009_4_9_6.png, 0
Patient_41_42009/Subregion_4/41_42009_4_9_7.png, 0
Patient_41_42009/Subregion_4/41_42009_4_9_8.png, 0
Patient_41_42009/Subregion_4/41_42009_4_9_9.png, 0
Patient_41_42009/Subregion_5/41_42009_5_10_10.png, 1
Patient_41_42009/Subregion_5/41_42009_5_10_11.png, 1
Patient_41_42009/Subregion_5/41_42009_5_10_12.png, 1
Patient_41_42009/Subregion_5/41_42009_5_10_13.png, 1
Patient_41_42009/Subregion_5/41_42009_5_10_14.png, 1
Patient_41_42009/Subregion_5/41_42009_5_10_15.png, 1
Patient_41_42009/Subregion_5/41_42009_5_10_16.png, 1
Patient_41_42009/Subregion_5/41_42009_5_10_17.png, 1
Patient_41_42009/Subregion_5/41_42009_5_10_18.png, 1
Patient_41_42009/Subregion_5/41_42009_5_10_5.png, 1
Patient_41_42009/Subregion_5/41_42009_5_10_6.png, 1
Patient_41_42009/Subregion_5/41_42009_5_10_7.png, 1
Patient_41_42009/Subregion_5/41_42009_5_10_8.png, 1
Patient_41_42009/Subregion_5/41_42009_5_10_9.png, 1
Patient_41_42009/Subregion_5/41_42009_5_11_10.png, 1
Patient_41_42009/Subregion_5/41_42009_5_11_11.png, 1
Patient_41_42009/Subregion_5/41_42009_5_11_12.png, 1
Patient_41_42009/Subregion_5/41_42009_5_11_13.png, 1
Patient_41_42009/Subregion_5/41_42009_5_11_14.png, 1
Patient_41_42009/Subregion_5/41_42009_5_11_15.png, 1
Patient_41_42009/Subregion_5/41_42009_5_11_16.png, 1
Patient_41_42009/Subregion_5/41_42009_5_11_17.png, 1
Patient_41_42009/Subregion_5/41_42009_5_11_5.png, 1
Patient_41_42009/Subregion_5/41_42009_5_11_6.png, 1
Patient_41_42009/Subregion_5/41_42009_5_11_7.png, 1
Patient_41_42009/Subregion_5/41_42009_5_11_8.png, 1
Patient_41_42009/Subregion_5/41_42009_5_11_9.png, 1
Patient_41_42009/Subregion_5/41_42009_5_12_10.png, 1
Patient_41_42009/Subregion_5/41_42009_5_12_11.png, 1
Patient_41_42009/Subregion_5/41_42009_5_12_12.png, 1
Patient_41_42009/Subregion_5/41_42009_5_12_13.png, 1
Patient_41_42009/Subregion_5/41_42009_5_12_14.png, 1
Patient_41_42009/Subregion_5/41_42009_5_12_15.png, 1
Patient_41_42009/Subregion_5/41_42009_5_12_16.png, 1
Patient_41_42009/Subregion_5/41_42009_5_12_17.png, 1
Patient_41_42009/Subregion_5/41_42009_5_12_5.png, 1
Patient_41_42009/Subregion_5/41_42009_5_12_6.png, 1
Patient_41_42009/Subregion_5/41_42009_5_12_7.png, 1
Patient_41_42009/Subregion_5/41_42009_5_12_8.png, 1
Patient_41_42009/Subregion_5/41_42009_5_12_9.png, 1
Patient_41_42009/Subregion_5/41_42009_5_13_10.png, 1
Patient_41_42009/Subregion_5/41_42009_5_13_11.png, 1
Patient_41_42009/Subregion_5/41_42009_5_13_12.png, 1
Patient_41_42009/Subregion_5/41_42009_5_13_13.png, 1
Patient_41_42009/Subregion_5/41_42009_5_13_14.png, 1
Patient_41_42009/Subregion_5/41_42009_5_13_15.png, 1
Patient_41_42009/Subregion_5/41_42009_5_13_16.png, 1
Patient_41_42009/Subregion_5/41_42009_5_13_17.png, 1
Patient_41_42009/Subregion_5/41_42009_5_13_5.png, 1
Patient_41_42009/Subregion_5/41_42009_5_13_6.png, 1
Patient_41_42009/Subregion_5/41_42009_5_13_7.png, 1
Patient_41_42009/Subregion_5/41_42009_5_13_8.png, 1
Patient_41_42009/Subregion_5/41_42009_5_13_9.png, 1
Patient_41_42009/Subregion_5/41_42009_5_14_10.png, 1
Patient_41_42009/Subregion_5/41_42009_5_14_11.png, 1
Patient_41_42009/Subregion_5/41_42009_5_14_12.png, 1
Patient_41_42009/Subregion_5/41_42009_5_14_13.png, 1
Patient_41_42009/Subregion_5/41_42009_5_14_14.png, 1
Patient_41_42009/Subregion_5/41_42009_5_14_15.png, 1
Patient_41_42009/Subregion_5/41_42009_5_14_16.png, 1
Patient_41_42009/Subregion_5/41_42009_5_14_17.png, 1
Patient_41_42009/Subregion_5/41_42009_5_14_4.png, 1
Patient_41_42009/Subregion_5/41_42009_5_14_5.png, 1
Patient_41_42009/Subregion_5/41_42009_5_14_6.png, 1
Patient_41_42009/Subregion_5/41_42009_5_14_7.png, 1
Patient_41_42009/Subregion_5/41_42009_5_14_8.png, 1
Patient_41_42009/Subregion_5/41_42009_5_14_9.png, 1
Patient_41_42009/Subregion_5/41_42009_5_15_10.png, 1
Patient_41_42009/Subregion_5/41_42009_5_15_11.png, 1
Patient_41_42009/Subregion_5/41_42009_5_15_12.png, 1
Patient_41_42009/Subregion_5/41_42009_5_15_13.png, 1
Patient_41_42009/Subregion_5/41_42009_5_15_14.png, 1
Patient_41_42009/Subregion_5/41_42009_5_15_15.png, 1
Patient_41_42009/Subregion_5/41_42009_5_15_16.png, 1
Patient_41_42009/Subregion_5/41_42009_5_15_3.png, 1
Patient_41_42009/Subregion_5/41_42009_5_15_4.png, 1
Patient_41_42009/Subregion_5/41_42009_5_15_5.png, 1
Patient_41_42009/Subregion_5/41_42009_5_15_6.png, 1
Patient_41_42009/Subregion_5/41_42009_5_15_7.png, 1
Patient_41_42009/Subregion_5/41_42009_5_15_8.png, 1
Patient_41_42009/Subregion_5/41_42009_5_15_9.png, 1
Patient_41_42009/Subregion_5/41_42009_5_16_10.png, 1
Patient_41_42009/Subregion_5/41_42009_5_16_11.png, 1
Patient_41_42009/Subregion_5/41_42009_5_16_12.png, 1
Patient_41_42009/Subregion_5/41_42009_5_16_13.png, 1
Patient_41_42009/Subregion_5/41_42009_5_16_14.png, 1
Patient_41_42009/Subregion_5/41_42009_5_16_15.png, 1
Patient_41_42009/Subregion_5/41_42009_5_16_2.png, 1
Patient_41_42009/Subregion_5/41_42009_5_16_3.png, 1
Patient_41_42009/Subregion_5/41_42009_5_16_4.png, 1
Patient_41_42009/Subregion_5/41_42009_5_16_5.png, 1
Patient_41_42009/Subregion_5/41_42009_5_16_6.png, 1
Patient_41_42009/Subregion_5/41_42009_5_16_7.png, 1
Patient_41_42009/Subregion_5/41_42009_5_16_8.png, 1
Patient_41_42009/Subregion_5/41_42009_5_16_9.png, 1
Patient_41_42009/Subregion_5/41_42009_5_17_11.png, 1
Patient_41_42009/Subregion_5/41_42009_5_17_12.png, 1
Patient_41_42009/Subregion_5/41_42009_5_17_13.png, 1
Patient_41_42009/Subregion_5/41_42009_5_17_14.png, 1
Patient_41_42009/Subregion_5/41_42009_5_17_15.png, 1
Patient_41_42009/Subregion_5/41_42009_5_17_2.png, 1
Patient_41_42009/Subregion_5/41_42009_5_17_3.png, 1
Patient_41_42009/Subregion_5/41_42009_5_17_4.png, 1
Patient_41_42009/Subregion_5/41_42009_5_17_5.png, 1
Patient_41_42009/Subregion_5/41_42009_5_17_6.png, 1
Patient_41_42009/Subregion_5/41_42009_5_17_7.png, 1
Patient_41_42009/Subregion_5/41_42009_5_17_8.png, 1
Patient_41_42009/Subregion_5/41_42009_5_17_9.png, 1
Patient_41_42009/Subregion_5/41_42009_5_18_10.png, 1
Patient_41_42009/Subregion_5/41_42009_5_18_11.png, 1
Patient_41_42009/Subregion_5/41_42009_5_18_12.png, 1
Patient_41_42009/Subregion_5/41_42009_5_18_13.png, 1
Patient_41_42009/Subregion_5/41_42009_5_18_14.png, 1
Patient_41_42009/Subregion_5/41_42009_5_18_15.png, 1
Patient_41_42009/Subregion_5/41_42009_5_18_2.png, 1
Patient_41_42009/Subregion_5/41_42009_5_18_3.png, 1
Patient_41_42009/Subregion_5/41_42009_5_18_4.png, 1
Patient_41_42009/Subregion_5/41_42009_5_18_5.png, 1
Patient_41_42009/Subregion_5/41_42009_5_18_6.png, 1
Patient_41_42009/Subregion_5/41_42009_5_18_7.png, 1
Patient_41_42009/Subregion_5/41_42009_5_18_8.png, 1
Patient_41_42009/Subregion_5/41_42009_5_18_9.png, 1
Patient_41_42009/Subregion_5/41_42009_5_19_10.png, 1
Patient_41_42009/Subregion_5/41_42009_5_19_11.png, 1
Patient_41_42009/Subregion_5/41_42009_5_19_12.png, 1
Patient_41_42009/Subregion_5/41_42009_5_19_13.png, 1
Patient_41_42009/Subregion_5/41_42009_5_19_14.png, 1
Patient_41_42009/Subregion_5/41_42009_5_19_2.png, 1
Patient_41_42009/Subregion_5/41_42009_5_19_3.png, 1
Patient_41_42009/Subregion_5/41_42009_5_19_4.png, 1
Patient_41_42009/Subregion_5/41_42009_5_19_5.png, 1
Patient_41_42009/Subregion_5/41_42009_5_19_6.png, 1
Patient_41_42009/Subregion_5/41_42009_5_19_7.png, 1
Patient_41_42009/Subregion_5/41_42009_5_19_8.png, 1
Patient_41_42009/Subregion_5/41_42009_5_19_9.png, 1
Patient_41_42009/Subregion_5/41_42009_5_2_11.png, 1
Patient_41_42009/Subregion_5/41_42009_5_2_14.png, 1
Patient_41_42009/Subregion_5/41_42009_5_2_15.png, 1
Patient_41_42009/Subregion_5/41_42009_5_2_18.png, 1
Patient_41_42009/Subregion_5/41_42009_5_2_19.png, 1
Patient_41_42009/Subregion_5/41_42009_5_20_10.png, 1
Patient_41_42009/Subregion_5/41_42009_5_20_11.png, 1
Patient_41_42009/Subregion_5/41_42009_5_20_12.png, 1
Patient_41_42009/Subregion_5/41_42009_5_20_13.png, 1
Patient_41_42009/Subregion_5/41_42009_5_20_3.png, 1
Patient_41_42009/Subregion_5/41_42009_5_20_4.png, 1
Patient_41_42009/Subregion_5/41_42009_5_20_5.png, 1
Patient_41_42009/Subregion_5/41_42009_5_20_6.png, 1
Patient_41_42009/Subregion_5/41_42009_5_20_7.png, 1
Patient_41_42009/Subregion_5/41_42009_5_20_8.png, 1
Patient_41_42009/Subregion_5/41_42009_5_20_9.png, 1
Patient_41_42009/Subregion_5/41_42009_5_21_10.png, 1
Patient_41_42009/Subregion_5/41_42009_5_21_11.png, 1
Patient_41_42009/Subregion_5/41_42009_5_21_12.png, 1
Patient_41_42009/Subregion_5/41_42009_5_21_4.png, 1
Patient_41_42009/Subregion_5/41_42009_5_21_5.png, 1
Patient_41_42009/Subregion_5/41_42009_5_21_6.png, 1
Patient_41_42009/Subregion_5/41_42009_5_21_7.png, 1
Patient_41_42009/Subregion_5/41_42009_5_21_8.png, 1
Patient_41_42009/Subregion_5/41_42009_5_21_9.png, 1
Patient_41_42009/Subregion_5/41_42009_5_22_11.png, 1
Patient_41_42009/Subregion_5/41_42009_5_22_5.png, 1
Patient_41_42009/Subregion_5/41_42009_5_22_6.png, 1
Patient_41_42009/Subregion_5/41_42009_5_22_7.png, 1
Patient_41_42009/Subregion_5/41_42009_5_22_8.png, 1
Patient_41_42009/Subregion_5/41_42009_5_22_9.png, 1
Patient_41_42009/Subregion_5/41_42009_5_24_6.png, 1
Patient_41_42009/Subregion_5/41_42009_5_24_7.png, 1
Patient_41_42009/Subregion_5/41_42009_5_3_11.png, 1
Patient_41_42009/Subregion_5/41_42009_5_3_12.png, 1
Patient_41_42009/Subregion_5/41_42009_5_3_13.png, 1
Patient_41_42009/Subregion_5/41_42009_5_3_14.png, 1
Patient_41_42009/Subregion_5/41_42009_5_3_15.png, 1
Patient_41_42009/Subregion_5/41_42009_5_3_16.png, 1
Patient_41_42009/Subregion_5/41_42009_5_3_9.png, 1
Patient_41_42009/Subregion_5/41_42009_5_4_11.png, 1
Patient_41_42009/Subregion_5/41_42009_5_4_12.png, 1
Patient_41_42009/Subregion_5/41_42009_5_4_13.png, 1
Patient_41_42009/Subregion_5/41_42009_5_4_14.png, 1
Patient_41_42009/Subregion_5/41_42009_5_4_15.png, 1
Patient_41_42009/Subregion_5/41_42009_5_4_16.png, 1
Patient_41_42009/Subregion_5/41_42009_5_4_17.png, 1
Patient_41_42009/Subregion_5/41_42009_5_4_9.png, 1
Patient_41_42009/Subregion_5/41_42009_5_5_10.png, 1
Patient_41_42009/Subregion_5/41_42009_5_5_11.png, 1
Patient_41_42009/Subregion_5/41_42009_5_5_12.png, 1
Patient_41_42009/Subregion_5/41_42009_5_5_13.png, 1
Patient_41_42009/Subregion_5/41_42009_5_5_14.png, 1
Patient_41_42009/Subregion_5/41_42009_5_5_15.png, 1
Patient_41_42009/Subregion_5/41_42009_5_5_16.png, 1
Patient_41_42009/Subregion_5/41_42009_5_5_17.png, 1
Patient_41_42009/Subregion_5/41_42009_5_5_18.png, 1
Patient_41_42009/Subregion_5/41_42009_5_5_19.png, 1
Patient_41_42009/Subregion_5/41_42009_5_5_8.png, 1
Patient_41_42009/Subregion_5/41_42009_5_5_9.png, 1
Patient_41_42009/Subregion_5/41_42009_5_6_10.png, 1
Patient_41_42009/Subregion_5/41_42009_5_6_11.png, 1
Patient_41_42009/Subregion_5/41_42009_5_6_12.png, 1
Patient_41_42009/Subregion_5/41_42009_5_6_13.png, 1
Patient_41_42009/Subregion_5/41_42009_5_6_14.png, 1
Patient_41_42009/Subregion_5/41_42009_5_6_15.png, 1
Patient_41_42009/Subregion_5/41_42009_5_6_16.png, 1
Patient_41_42009/Subregion_5/41_42009_5_6_17.png, 1
Patient_41_42009/Subregion_5/41_42009_5_6_18.png, 1
Patient_41_42009/Subregion_5/41_42009_5_6_19.png, 1
Patient_41_42009/Subregion_5/41_42009_5_6_8.png, 1
Patient_41_42009/Subregion_5/41_42009_5_6_9.png, 1
Patient_41_42009/Subregion_5/41_42009_5_7_10.png, 1
Patient_41_42009/Subregion_5/41_42009_5_7_11.png, 1
Patient_41_42009/Subregion_5/41_42009_5_7_12.png, 1
Patient_41_42009/Subregion_5/41_42009_5_7_13.png, 1
Patient_41_42009/Subregion_5/41_42009_5_7_14.png, 1
Patient_41_42009/Subregion_5/41_42009_5_7_15.png, 1
Patient_41_42009/Subregion_5/41_42009_5_7_16.png, 1
Patient_41_42009/Subregion_5/41_42009_5_7_17.png, 1
Patient_41_42009/Subregion_5/41_42009_5_7_18.png, 1
Patient_41_42009/Subregion_5/41_42009_5_7_19.png, 1
Patient_41_42009/Subregion_5/41_42009_5_7_6.png, 1
Patient_41_42009/Subregion_5/41_42009_5_7_7.png, 1
Patient_41_42009/Subregion_5/41_42009_5_7_8.png, 1
Patient_41_42009/Subregion_5/41_42009_5_7_9.png, 1
Patient_41_42009/Subregion_5/41_42009_5_8_10.png, 1
Patient_41_42009/Subregion_5/41_42009_5_8_11.png, 1
Patient_41_42009/Subregion_5/41_42009_5_8_12.png, 1
Patient_41_42009/Subregion_5/41_42009_5_8_13.png, 1
Patient_41_42009/Subregion_5/41_42009_5_8_14.png, 1
Patient_41_42009/Subregion_5/41_42009_5_8_15.png, 1
Patient_41_42009/Subregion_5/41_42009_5_8_16.png, 1
Patient_41_42009/Subregion_5/41_42009_5_8_17.png, 1
Patient_41_42009/Subregion_5/41_42009_5_8_18.png, 1
Patient_41_42009/Subregion_5/41_42009_5_8_19.png, 1
Patient_41_42009/Subregion_5/41_42009_5_8_6.png, 1
Patient_41_42009/Subregion_5/41_42009_5_8_7.png, 1
Patient_41_42009/Subregion_5/41_42009_5_8_8.png, 1
Patient_41_42009/Subregion_5/41_42009_5_8_9.png, 1
Patient_41_42009/Subregion_5/41_42009_5_9_10.png, 1
Patient_41_42009/Subregion_5/41_42009_5_9_11.png, 1
Patient_41_42009/Subregion_5/41_42009_5_9_12.png, 1
Patient_41_42009/Subregion_5/41_42009_5_9_13.png, 1
Patient_41_42009/Subregion_5/41_42009_5_9_14.png, 1
Patient_41_42009/Subregion_5/41_42009_5_9_15.png, 1
Patient_41_42009/Subregion_5/41_42009_5_9_16.png, 1
Patient_41_42009/Subregion_5/41_42009_5_9_17.png, 1
Patient_41_42009/Subregion_5/41_42009_5_9_18.png, 1
Patient_41_42009/Subregion_5/41_42009_5_9_19.png, 1
Patient_41_42009/Subregion_5/41_42009_5_9_6.png, 1
Patient_41_42009/Subregion_5/41_42009_5_9_7.png, 1
Patient_41_42009/Subregion_5/41_42009_5_9_8.png, 1
Patient_41_42009/Subregion_5/41_42009_5_9_9.png, 1
Patient_41_42009/Subregion_9/41_42009_9_1_0.png, 0
Patient_41_42009/Subregion_9/41_42009_9_1_1.png, 0
Patient_41_42009/Subregion_9/41_42009_9_1_2.png, 0
Patient_41_42009/Subregion_9/41_42009_9_10_0.png, 0
Patient_41_42009/Subregion_9/41_42009_9_10_1.png, 0
Patient_41_42009/Subregion_9/41_42009_9_10_2.png, 0
Patient_41_42009/Subregion_9/41_42009_9_10_3.png, 0
Patient_41_42009/Subregion_9/41_42009_9_10_4.png, 0
Patient_41_42009/Subregion_9/41_42009_9_2_0.png, 0
Patient_41_42009/Subregion_9/41_42009_9_2_1.png, 0
Patient_41_42009/Subregion_9/41_42009_9_2_2.png, 0
Patient_41_42009/Subregion_9/41_42009_9_2_3.png, 0
Patient_41_42009/Subregion_9/41_42009_9_2_4.png, 0
Patient_41_42009/Subregion_9/41_42009_9_3_0.png, 0
Patient_41_42009/Subregion_9/41_42009_9_3_1.png, 0
Patient_41_42009/Subregion_9/41_42009_9_3_2.png, 0
Patient_41_42009/Subregion_9/41_42009_9_3_3.png, 0
Patient_41_42009/Subregion_9/41_42009_9_4_1.png, 0
Patient_41_42009/Subregion_9/41_42009_9_4_2.png, 0
Patient_41_42009/Subregion_9/41_42009_9_4_3.png, 0
Patient_41_42009/Subregion_9/41_42009_9_4_4.png, 0
Patient_41_42009/Subregion_9/41_42009_9_5_0.png, 0
Patient_41_42009/Subregion_9/41_42009_9_5_1.png, 0
Patient_41_42009/Subregion_9/41_42009_9_5_2.png, 0
Patient_41_42009/Subregion_9/41_42009_9_5_3.png, 0
Patient_41_42009/Subregion_9/41_42009_9_5_4.png, 0
Patient_41_42009/Subregion_9/41_42009_9_6_0.png, 0
Patient_41_42009/Subregion_9/41_42009_9_6_1.png, 0
Patient_41_42009/Subregion_9/41_42009_9_6_2.png, 0
Patient_41_42009/Subregion_9/41_42009_9_6_3.png, 0
Patient_41_42009/Subregion_9/41_42009_9_6_4.png, 0
Patient_41_42009/Subregion_9/41_42009_9_7_0.png, 0
Patient_41_42009/Subregion_9/41_42009_9_7_1.png, 0
Patient_41_42009/Subregion_9/41_42009_9_7_2.png, 0
Patient_41_42009/Subregion_9/41_42009_9_7_3.png, 0
Patient_41_42009/Subregion_9/41_42009_9_7_4.png, 0
Patient_41_42009/Subregion_9/41_42009_9_8_0.png, 0
Patient_41_42009/Subregion_9/41_42009_9_8_1.png, 0
Patient_41_42009/Subregion_9/41_42009_9_8_2.png, 0
Patient_41_42009/Subregion_9/41_42009_9_8_3.png, 0
Patient_41_42009/Subregion_9/41_42009_9_8_4.png, 0
Patient_41_42009/Subregion_9/41_42009_9_9_0.png, 0
Patient_41_42009/Subregion_9/41_42009_9_9_1.png, 0
Patient_41_42009/Subregion_9/41_42009_9_9_2.png, 0
