file_image, manual_annot
Patient_17_18009/Subregion_0/17_18009_0_0_1.png, 0
Patient_17_18009/Subregion_0/17_18009_0_0_2.png, 0
Patient_17_18009/Subregion_0/17_18009_0_0_3.png, 0
Patient_17_18009/Subregion_0/17_18009_0_0_4.png, 0
Patient_17_18009/Subregion_0/17_18009_0_0_5.png, 0
Patient_17_18009/Subregion_0/17_18009_0_0_6.png, 0
Patient_17_18009/Subregion_0/17_18009_0_1_0.png, 0
Patient_17_18009/Subregion_0/17_18009_0_1_1.png, 0
Patient_17_18009/Subregion_0/17_18009_0_1_2.png, 0
Patient_17_18009/Subregion_0/17_18009_0_1_3.png, 0
Patient_17_18009/Subregion_0/17_18009_0_1_4.png, 0
Patient_17_18009/Subregion_0/17_18009_0_1_5.png, 0
Patient_17_18009/Subregion_0/17_18009_0_1_6.png, 0
Patient_17_18009/Subregion_0/17_18009_0_2_0.png, 0
Patient_17_18009/Subregion_0/17_18009_0_2_1.png, 0
Patient_17_18009/Subregion_0/17_18009_0_2_2.png, 0
Patient_17_18009/Subregion_0/17_18009_0_2_3.png, 0
Patient_17_18009/Subregion_0/17_18009_0_2_4.png, 0
Patient_17_18009/Subregion_0/17_18009_0_2_5.png, 0
Patient_17_18009/Subregion_0/17_18009_0_2_6.png, 0
Patient_17_18009/Subregion_0/17_18009_0_3_0.png, 0
Patient_17_18009/Subregion_0/17_18009_0_3_1.png, 0
Patient_17_18009/Subregion_0/17_18009_0_3_2.png, 0
Patient_17_18009/Subregion_0/17_18009_0_3_3.png, 0
Patient_17_18009/Subregion_0/17_18009_0_3_4.png, 0
Patient_17_18009/Subregion_0/17_18009_0_3_5.png, 0
Patient_17_18009/Subregion_0/17_18009_0_3_6.png, 0
Patient_17_18009/Subregion_0/17_18009_0_4_0.png, 0
Patient_17_18009/Subregion_0/17_18009_0_4_5.png, 0
Patient_17_18009/Subregion_0/17_18009_0_4_6.png, 0
Patient_17_18009/Subregion_1/17_18009_1_1_0.png, 0
Patient_17_18009/Subregion_1/17_18009_1_1_1.png, 0
Patient_17_18009/Subregion_1/17_18009_1_1_2.png, 0
Patient_17_18009/Subregion_1/17_18009_1_2_0.png, 0
Patient_17_18009/Subregion_1/17_18009_1_2_1.png, 0
Patient_17_18009/Subregion_1/17_18009_1_2_2.png, 0
Patient_17_18009/Subregion_1/17_18009_1_3_0.png, 0
Patient_17_18009/Subregion_1/17_18009_1_3_3.png, 0
Patient_17_18009/Subregion_1/17_18009_1_4_0.png, 0
Patient_17_18009/Subregion_2/17_18009_2_0_0.png, 0
Patient_17_18009/Subregion_2/17_18009_2_0_1.png, 0
Patient_17_18009/Subregion_2/17_18009_2_0_2.png, 0
Patient_17_18009/Subregion_2/17_18009_2_0_3.png, 0
Patient_17_18009/Subregion_2/17_18009_2_0_4.png, 0
Patient_17_18009/Subregion_2/17_18009_2_0_5.png, 0
Patient_17_18009/Subregion_2/17_18009_2_1_0.png, 0
Patient_17_18009/Subregion_2/17_18009_2_1_1.png, 0
Patient_17_18009/Subregion_2/17_18009_2_1_2.png, 0
Patient_17_18009/Subregion_2/17_18009_2_1_3.png, 0
Patient_17_18009/Subregion_2/17_18009_2_1_4.png, 0
Patient_17_18009/Subregion_2/17_18009_2_1_5.png, 0
Patient_17_18009/Subregion_2/17_18009_2_2_0.png, 0
Patient_17_18009/Subregion_2/17_18009_2_2_1.png, 0
Patient_17_18009/Subregion_2/17_18009_2_2_2.png, 0
Patient_17_18009/Subregion_2/17_18009_2_2_3.png, 0
Patient_17_18009/Subregion_2/17_18009_2_2_4.png, 0
Patient_17_18009/Subregion_2/17_18009_2_2_5.png, 0
Patient_17_18009/Subregion_2/17_18009_2_3_0.png, 0
Patient_17_18009/Subregion_2/17_18009_2_3_1.png, 0
Patient_17_18009/Subregion_2/17_18009_2_3_2.png, 0
Patient_17_18009/Subregion_2/17_18009_2_3_3.png, 0
Patient_17_18009/Subregion_2/17_18009_2_3_4.png, 0
Patient_17_18009/Subregion_2/17_18009_2_3_5.png, 0
Patient_17_18009/Subregion_2/17_18009_2_4_0.png, 0
Patient_17_18009/Subregion_2/17_18009_2_4_1.png, 0
Patient_17_18009/Subregion_2/17_18009_2_4_2.png, 0
Patient_17_18009/Subregion_2/17_18009_2_4_3.png, 0
Patient_17_18009/Subregion_3/17_18009_3_0_1.png, 0
Patient_17_18009/Subregion_3/17_18009_3_1_0.png, 0
Patient_17_18009/Subregion_3/17_18009_3_1_1.png, 0
Patient_17_18009/Subregion_3/17_18009_3_1_2.png, 0
Patient_17_18009/Subregion_3/17_18009_3_1_3.png, 0
Patient_17_18009/Subregion_3/17_18009_3_1_4.png, 0
Patient_17_18009/Subregion_3/17_18009_3_1_5.png, 0
Patient_17_18009/Subregion_3/17_18009_3_1_6.png, 0
Patient_17_18009/Subregion_3/17_18009_3_1_7.png, 0
Patient_17_18009/Subregion_3/17_18009_3_2_0.png, 0
Patient_17_18009/Subregion_3/17_18009_3_2_1.png, 0
Patient_17_18009/Subregion_3/17_18009_3_2_2.png, 0
Patient_17_18009/Subregion_3/17_18009_3_2_3.png, 0
Patient_17_18009/Subregion_3/17_18009_3_2_4.png, 0
Patient_17_18009/Subregion_3/17_18009_3_2_5.png, 0
Patient_17_18009/Subregion_3/17_18009_3_2_6.png, 0
Patient_17_18009/Subregion_3/17_18009_3_2_7.png, 0
Patient_17_18009/Subregion_3/17_18009_3_3_0.png, 0
Patient_17_18009/Subregion_3/17_18009_3_3_1.png, 0
Patient_17_18009/Subregion_3/17_18009_3_3_2.png, 0
Patient_17_18009/Subregion_3/17_18009_3_3_3.png, 0
Patient_17_18009/Subregion_3/17_18009_3_3_4.png, 0
Patient_17_18009/Subregion_3/17_18009_3_3_5.png, 0
Patient_17_18009/Subregion_3/17_18009_3_3_6.png, 0
Patient_17_18009/Subregion_3/17_18009_3_3_7.png, 0
Patient_17_18009/Subregion_3/17_18009_3_4_0.png, 0
Patient_17_18009/Subregion_3/17_18009_3_4_1.png, 0
Patient_17_18009/Subregion_3/17_18009_3_4_2.png, 0
Patient_17_18009/Subregion_3/17_18009_3_4_3.png, 0
Patient_17_18009/Subregion_3/17_18009_3_4_4.png, 0
Patient_17_18009/Subregion_3/17_18009_3_4_5.png, 0
Patient_17_18009/Subregion_3/17_18009_3_4_6.png, 0
Patient_17_18009/Subregion_3/17_18009_3_4_7.png, 0
Patient_17_18009/Subregion_3/17_18009_3_5_0.png, 0
Patient_17_18009/Subregion_3/17_18009_3_7_1.png, 0
Patient_17_18009/Subregion_3/17_18009_3_7_2.png, 0
Patient_17_18009/Subregion_3/17_18009_3_7_3.png, 0
Patient_17_18009/Subregion_3/17_18009_3_7_4.png, 0
Patient_17_18009/Subregion_3/17_18009_3_7_5.png, 0
Patient_17_18009/Subregion_3/17_18009_3_7_6.png, 0
Patient_17_18009/Subregion_3/17_18009_3_7_7.png, 0
Patient_17_18009/Subregion_4/17_18009_4_0_0.png, 0
Patient_17_18009/Subregion_4/17_18009_4_0_1.png, 0
Patient_17_18009/Subregion_4/17_18009_4_0_2.png, 0
Patient_17_18009/Subregion_4/17_18009_4_1_0.png, 0
Patient_17_18009/Subregion_4/17_18009_4_1_1.png, 0
Patient_17_18009/Subregion_4/17_18009_4_1_2.png, 0
Patient_17_18009/Subregion_4/17_18009_4_1_3.png, 0
Patient_17_18009/Subregion_4/17_18009_4_1_4.png, 0
Patient_17_18009/Subregion_4/17_18009_4_1_5.png, 0
Patient_17_18009/Subregion_4/17_18009_4_1_6.png, 0
Patient_17_18009/Subregion_4/17_18009_4_1_7.png, 0
Patient_17_18009/Subregion_4/17_18009_4_1_8.png, 0
Patient_17_18009/Subregion_4/17_18009_4_2_0.png, 0
Patient_17_18009/Subregion_4/17_18009_4_2_1.png, 0
Patient_17_18009/Subregion_4/17_18009_4_2_2.png, 0
Patient_17_18009/Subregion_4/17_18009_4_2_3.png, 0
Patient_17_18009/Subregion_4/17_18009_4_2_4.png, 0
Patient_17_18009/Subregion_4/17_18009_4_2_5.png, 0
Patient_17_18009/Subregion_4/17_18009_4_2_6.png, 0
Patient_17_18009/Subregion_4/17_18009_4_2_7.png, 0
Patient_17_18009/Subregion_4/17_18009_4_2_8.png, 0
Patient_17_18009/Subregion_4/17_18009_4_3_0.png, 0
Patient_17_18009/Subregion_4/17_18009_4_3_1.png, 0
Patient_17_18009/Subregion_4/17_18009_4_3_2.png, 0
Patient_17_18009/Subregion_4/17_18009_4_3_3.png, 0
Patient_17_18009/Subregion_4/17_18009_4_3_4.png, 0
Patient_17_18009/Subregion_4/17_18009_4_3_5.png, 0
Patient_17_18009/Subregion_4/17_18009_4_3_6.png, 0
Patient_17_18009/Subregion_4/17_18009_4_3_7.png, 0
Patient_17_18009/Subregion_4/17_18009_4_3_8.png, 0
Patient_17_18009/Subregion_4/17_18009_4_4_8.png, 0
Patient_17_18009/Subregion_4/17_18009_4_6_1.png, 0
Patient_17_18009/Subregion_4/17_18009_4_6_2.png, 0
Patient_17_18009/Subregion_4/17_18009_4_6_3.png, 0
