file_image, manual_annot
Patient_0_1009/Subregion_0/0_1009_0_0_0.png, 0
Patient_0_1009/Subregion_0/0_1009_0_0_1.png, 0
Patient_0_1009/Subregion_0/0_1009_0_0_2.png, 0
Patient_0_1009/Subregion_0/0_1009_0_0_3.png, 0
Patient_0_1009/Subregion_0/0_1009_0_0_4.png, 0
Patient_0_1009/Subregion_0/0_1009_0_0_5.png, 0
Patient_0_1009/Subregion_0/0_1009_0_0_6.png, 0
Patient_0_1009/Subregion_0/0_1009_0_0_7.png, 0
Patient_0_1009/Subregion_0/0_1009_0_1_0.png, 0
Patient_0_1009/Subregion_0/0_1009_0_1_1.png, 0
Patient_0_1009/Subregion_0/0_1009_0_1_2.png, 0
Patient_0_1009/Subregion_0/0_1009_0_1_3.png, 0
Patient_0_1009/Subregion_0/0_1009_0_1_4.png, 0
Patient_0_1009/Subregion_0/0_1009_0_1_5.png, 0
Patient_0_1009/Subregion_0/0_1009_0_1_6.png, 0
Patient_0_1009/Subregion_0/0_1009_0_1_7.png, 0
Patient_0_1009/Subregion_0/0_1009_0_2_0.png, 0
Patient_0_1009/Subregion_0/0_1009_0_2_1.png, 0
Patient_0_1009/Subregion_0/0_1009_0_2_2.png, 0
Patient_0_1009/Subregion_0/0_1009_0_2_3.png, 0
Patient_0_1009/Subregion_0/0_1009_0_2_4.png, 0
Patient_0_1009/Subregion_0/0_1009_0_2_5.png, 0
Patient_0_1009/Subregion_0/0_1009_0_2_6.png, 0
Patient_0_1009/Subregion_0/0_1009_0_2_7.png, 0
Patient_0_1009/Subregion_0/0_1009_0_3_0.png, 0
Patient_0_1009/Subregion_0/0_1009_0_3_1.png, 0
Patient_0_1009/Subregion_0/0_1009_0_3_2.png, 0
Patient_0_1009/Subregion_0/0_1009_0_3_3.png, 0
Patient_0_1009/Subregion_0/0_1009_0_3_4.png, 0
Patient_0_1009/Subregion_0/0_1009_0_3_5.png, 0
Patient_0_1009/Subregion_0/0_1009_0_3_6.png, 0
Patient_0_1009/Subregion_0/0_1009_0_3_7.png, 0
Patient_0_1009/Subregion_0/0_1009_0_4_0.png, 0
Patient_0_1009/Subregion_0/0_1009_0_4_1.png, 0
Patient_0_1009/Subregion_0/0_1009_0_4_2.png, 0
Patient_0_1009/Subregion_0/0_1009_0_4_3.png, 0
Patient_0_1009/Subregion_0/0_1009_0_4_4.png, 0
Patient_0_1009/Subregion_0/0_1009_0_4_5.png, 0
Patient_0_1009/Subregion_0/0_1009_0_4_6.png, 0
Patient_0_1009/Subregion_0/0_1009_0_4_7.png, 0
Patient_0_1009/Subregion_0/0_1009_0_5_0.png, 0
Patient_0_1009/Subregion_0/0_1009_0_5_1.png, 0
Patient_0_1009/Subregion_0/0_1009_0_5_2.png, 0
Patient_0_1009/Subregion_0/0_1009_0_5_3.png, 0
Patient_0_1009/Subregion_0/0_1009_0_5_4.png, 0
Patient_0_1009/Subregion_0/0_1009_0_5_5.png, 0
Patient_0_1009/Subregion_0/0_1009_0_5_6.png, 0
Patient_0_1009/Subregion_0/0_1009_0_5_7.png, 0
Patient_0_1009/Subregion_1/0_1009_1_0_0.png, 0
Patient_0_1009/Subregion_1/0_1009_1_0_1.png, 0
Patient_0_1009/Subregion_1/0_1009_1_0_2.png, 0
Patient_0_1009/Subregion_1/0_1009_1_0_3.png, 0
Patient_0_1009/Subregion_1/0_1009_1_0_4.png, 0
Patient_0_1009/Subregion_1/0_1009_1_0_5.png, 0
Patient_0_1009/Subregion_1/0_1009_1_0_6.png, 0
Patient_0_1009/Subregion_1/0_1009_1_0_7.png, 0
Patient_0_1009/Subregion_1/0_1009_1_0_8.png, 0
Patient_0_1009/Subregion_1/0_1009_1_1_0.png, 0
Patient_0_1009/Subregion_1/0_1009_1_1_1.png, 0
Patient_0_1009/Subregion_1/0_1009_1_1_2.png, 0
Patient_0_1009/Subregion_1/0_1009_1_1_3.png, 0
Patient_0_1009/Subregion_1/0_1009_1_1_4.png, 0
Patient_0_1009/Subregion_1/0_1009_1_1_5.png, 0
Patient_0_1009/Subregion_1/0_1009_1_1_6.png, 0
Patient_0_1009/Subregion_1/0_1009_1_1_7.png, 0
Patient_0_1009/Subregion_1/0_1009_1_1_8.png, 0
Patient_0_1009/Subregion_1/0_1009_1_2_0.png, 0
Patient_0_1009/Subregion_1/0_1009_1_2_1.png, 0
Patient_0_1009/Subregion_1/0_1009_1_2_2.png, 0
Patient_0_1009/Subregion_1/0_1009_1_2_3.png, 0
Patient_0_1009/Subregion_1/0_1009_1_2_4.png, 0
Patient_0_1009/Subregion_1/0_1009_1_2_5.png, 0
Patient_0_1009/Subregion_1/0_1009_1_2_6.png, 0
Patient_0_1009/Subregion_1/0_1009_1_2_7.png, 0
Patient_0_1009/Subregion_1/0_1009_1_2_8.png, 0
Patient_0_1009/Subregion_1/0_1009_1_3_0.png, 0
Patient_0_1009/Subregion_1/0_1009_1_3_1.png, 0
Patient_0_1009/Subregion_1/0_1009_1_3_2.png, 0
Patient_0_1009/Subregion_1/0_1009_1_3_3.png, 0
Patient_0_1009/Subregion_1/0_1009_1_3_4.png, 0
Patient_0_1009/Subregion_1/0_1009_1_3_5.png, 0
Patient_0_1009/Subregion_1/0_1009_1_3_6.png, 0
Patient_0_1009/Subregion_1/0_1009_1_3_7.png, 0
Patient_0_1009/Subregion_1/0_1009_1_3_8.png, 0
Patient_0_1009/Subregion_1/0_1009_1_4_2.png, 0
Patient_0_1009/Subregion_1/0_1009_1_4_3.png, 0
Patient_0_1009/Subregion_1/0_1009_1_4_4.png, 0
Patient_0_1009/Subregion_1/0_1009_1_4_5.png, 0
Patient_0_1009/Subregion_1/0_1009_1_4_6.png, 0
Patient_0_1009/Subregion_1/0_1009_1_4_7.png, 0
Patient_0_1009/Subregion_1/0_1009_1_4_8.png, 0
Patient_0_1009/Subregion_1/0_1009_1_5_1.png, 0
Patient_0_1009/Subregion_1/0_1009_1_5_2.png, 0
Patient_0_1009/Subregion_1/0_1009_1_5_8.png, 0
Patient_0_1009/Subregion_10/0_1009_10_0_3.png, 0
Patient_0_1009/Subregion_10/0_1009_10_0_4.png, 0
Patient_0_1009/Subregion_10/0_1009_10_0_5.png, 0
Patient_0_1009/Subregion_10/0_1009_10_0_6.png, 0
Patient_0_1009/Subregion_10/0_1009_10_0_7.png, 0
Patient_0_1009/Subregion_10/0_1009_10_0_8.png, 0
Patient_0_1009/Subregion_10/0_1009_10_1_3.png, 0
Patient_0_1009/Subregion_10/0_1009_10_1_4.png, 0
Patient_0_1009/Subregion_10/0_1009_10_1_5.png, 0
Patient_0_1009/Subregion_10/0_1009_10_1_6.png, 0
Patient_0_1009/Subregion_10/0_1009_10_1_7.png, 0
Patient_0_1009/Subregion_10/0_1009_10_1_8.png, 0
Patient_0_1009/Subregion_10/0_1009_10_2_2.png, 0
Patient_0_1009/Subregion_10/0_1009_10_2_3.png, 0
Patient_0_1009/Subregion_10/0_1009_10_2_4.png, 0
Patient_0_1009/Subregion_10/0_1009_10_2_5.png, 0
Patient_0_1009/Subregion_10/0_1009_10_2_6.png, 0
Patient_0_1009/Subregion_10/0_1009_10_2_7.png, 0
Patient_0_1009/Subregion_10/0_1009_10_2_8.png, 0
Patient_0_1009/Subregion_10/0_1009_10_3_0.png, 0
Patient_0_1009/Subregion_10/0_1009_10_3_1.png, 0
Patient_0_1009/Subregion_10/0_1009_10_3_2.png, 0
Patient_0_1009/Subregion_10/0_1009_10_3_3.png, 0
Patient_0_1009/Subregion_10/0_1009_10_3_4.png, 0
Patient_0_1009/Subregion_10/0_1009_10_3_5.png, 0
Patient_0_1009/Subregion_10/0_1009_10_3_6.png, 0
Patient_0_1009/Subregion_10/0_1009_10_3_7.png, 0
Patient_0_1009/Subregion_10/0_1009_10_4_0.png, 0
Patient_0_1009/Subregion_10/0_1009_10_4_1.png, 0
Patient_0_1009/Subregion_10/0_1009_10_4_2.png, 0
Patient_0_1009/Subregion_10/0_1009_10_4_3.png, 0
Patient_0_1009/Subregion_10/0_1009_10_4_4.png, 0
Patient_0_1009/Subregion_10/0_1009_10_4_5.png, 0
Patient_0_1009/Subregion_10/0_1009_10_4_6.png, 0
Patient_0_1009/Subregion_10/0_1009_10_5_0.png, 0
Patient_0_1009/Subregion_10/0_1009_10_5_1.png, 0
Patient_0_1009/Subregion_10/0_1009_10_5_2.png, 0
Patient_0_1009/Subregion_10/0_1009_10_5_3.png, 0
Patient_0_1009/Subregion_10/0_1009_10_5_4.png, 0
Patient_0_1009/Subregion_10/0_1009_10_5_5.png, 0
Patient_0_1009/Subregion_10/0_1009_10_5_6.png, 0
Patient_0_1009/Subregion_10/0_1009_10_6_0.png, 0
Patient_0_1009/Subregion_10/0_1009_10_6_1.png, 0
Patient_0_1009/Subregion_10/0_1009_10_6_2.png, 0
Patient_0_1009/Subregion_10/0_1009_10_6_3.png, 0
Patient_0_1009/Subregion_10/0_1009_10_6_4.png, 0
Patient_0_1009/Subregion_10/0_1009_10_6_5.png, 0
Patient_0_1009/Subregion_10/0_1009_10_7_0.png, 0
Patient_0_1009/Subregion_10/0_1009_10_7_1.png, 0
Patient_0_1009/Subregion_10/0_1009_10_7_2.png, 0
Patient_0_1009/Subregion_10/0_1009_10_7_3.png, 0
Patient_0_1009/Subregion_10/0_1009_10_7_4.png, 0
Patient_0_1009/Subregion_10/0_1009_10_8_0.png, 0
Patient_0_1009/Subregion_10/0_1009_10_8_1.png, 0
Patient_0_1009/Subregion_10/0_1009_10_8_2.png, 0
Patient_0_1009/Subregion_10/0_1009_10_8_3.png, 0
Patient_0_1009/Subregion_10/0_1009_10_8_4.png, 0
Patient_0_1009/Subregion_11/0_1009_11_0_0.png, 0
Patient_0_1009/Subregion_11/0_1009_11_0_1.png, 0
Patient_0_1009/Subregion_11/0_1009_11_0_2.png, 0
Patient_0_1009/Subregion_11/0_1009_11_0_3.png, 0
Patient_0_1009/Subregion_11/0_1009_11_0_4.png, 0
Patient_0_1009/Subregion_11/0_1009_11_0_5.png, 0
Patient_0_1009/Subregion_11/0_1009_11_0_6.png, 0
Patient_0_1009/Subregion_11/0_1009_11_0_7.png, 0
Patient_0_1009/Subregion_11/0_1009_11_0_8.png, 0
Patient_0_1009/Subregion_11/0_1009_11_1_1.png, 0
Patient_0_1009/Subregion_11/0_1009_11_1_2.png, 0
Patient_0_1009/Subregion_11/0_1009_11_1_3.png, 0
Patient_0_1009/Subregion_11/0_1009_11_1_4.png, 0
Patient_0_1009/Subregion_11/0_1009_11_1_5.png, 0
Patient_0_1009/Subregion_11/0_1009_11_1_6.png, 0
Patient_0_1009/Subregion_11/0_1009_11_1_7.png, 0
Patient_0_1009/Subregion_11/0_1009_11_1_8.png, 0
Patient_0_1009/Subregion_11/0_1009_11_2_0.png, 0
Patient_0_1009/Subregion_11/0_1009_11_2_1.png, 0
Patient_0_1009/Subregion_11/0_1009_11_2_2.png, 0
Patient_0_1009/Subregion_11/0_1009_11_2_3.png, 0
Patient_0_1009/Subregion_11/0_1009_11_2_4.png, 0
Patient_0_1009/Subregion_11/0_1009_11_2_5.png, 0
Patient_0_1009/Subregion_11/0_1009_11_2_6.png, 0
Patient_0_1009/Subregion_11/0_1009_11_2_7.png, 0
Patient_0_1009/Subregion_11/0_1009_11_3_0.png, 0
Patient_0_1009/Subregion_11/0_1009_11_3_1.png, 0
Patient_0_1009/Subregion_11/0_1009_11_3_2.png, 0
Patient_0_1009/Subregion_11/0_1009_11_3_3.png, 0
Patient_0_1009/Subregion_11/0_1009_11_3_4.png, 0
Patient_0_1009/Subregion_11/0_1009_11_3_5.png, 0
Patient_0_1009/Subregion_11/0_1009_11_3_6.png, 0
Patient_0_1009/Subregion_11/0_1009_11_3_7.png, 0
Patient_0_1009/Subregion_11/0_1009_11_4_0.png, 0
Patient_0_1009/Subregion_11/0_1009_11_4_1.png, 0
Patient_0_1009/Subregion_11/0_1009_11_4_2.png, 0
Patient_0_1009/Subregion_11/0_1009_11_4_3.png, 0
Patient_0_1009/Subregion_11/0_1009_11_4_4.png, 0
Patient_0_1009/Subregion_11/0_1009_11_4_5.png, 0
Patient_0_1009/Subregion_11/0_1009_11_4_6.png, 0
Patient_0_1009/Subregion_11/0_1009_11_5_0.png, 0
Patient_0_1009/Subregion_11/0_1009_11_5_1.png, 0
Patient_0_1009/Subregion_11/0_1009_11_5_2.png, 0
Patient_0_1009/Subregion_11/0_1009_11_5_3.png, 0
Patient_0_1009/Subregion_11/0_1009_11_5_4.png, 0
Patient_0_1009/Subregion_11/0_1009_11_6_0.png, 0
Patient_0_1009/Subregion_11/0_1009_11_6_1.png, 0
Patient_0_1009/Subregion_11/0_1009_11_6_2.png, 0
Patient_0_1009/Subregion_11/0_1009_11_6_3.png, 0
Patient_0_1009/Subregion_11/0_1009_11_6_4.png, 0
Patient_0_1009/Subregion_12/0_1009_12_0_3.png, 0
Patient_0_1009/Subregion_12/0_1009_12_0_4.png, 0
Patient_0_1009/Subregion_12/0_1009_12_0_5.png, 0
Patient_0_1009/Subregion_12/0_1009_12_0_6.png, 0
Patient_0_1009/Subregion_12/0_1009_12_0_7.png, 0
Patient_0_1009/Subregion_12/0_1009_12_0_8.png, 0
Patient_0_1009/Subregion_12/0_1009_12_0_9.png, 0
Patient_0_1009/Subregion_12/0_1009_12_1_0.png, 0
Patient_0_1009/Subregion_12/0_1009_12_1_10.png, 0
Patient_0_1009/Subregion_12/0_1009_12_1_2.png, 0
Patient_0_1009/Subregion_12/0_1009_12_1_3.png, 0
Patient_0_1009/Subregion_12/0_1009_12_1_4.png, 0
Patient_0_1009/Subregion_12/0_1009_12_1_5.png, 0
Patient_0_1009/Subregion_12/0_1009_12_1_6.png, 0
Patient_0_1009/Subregion_12/0_1009_12_1_7.png, 0
Patient_0_1009/Subregion_12/0_1009_12_1_8.png, 0
Patient_0_1009/Subregion_12/0_1009_12_1_9.png, 0
Patient_0_1009/Subregion_12/0_1009_12_2_1.png, 0
Patient_0_1009/Subregion_12/0_1009_12_2_2.png, 0
Patient_0_1009/Subregion_12/0_1009_12_2_3.png, 0
Patient_0_1009/Subregion_12/0_1009_12_2_4.png, 0
Patient_0_1009/Subregion_12/0_1009_12_2_5.png, 0
Patient_0_1009/Subregion_12/0_1009_12_2_6.png, 0
Patient_0_1009/Subregion_12/0_1009_12_2_7.png, 0
Patient_0_1009/Subregion_12/0_1009_12_2_8.png, 0
Patient_0_1009/Subregion_12/0_1009_12_3_1.png, 0
Patient_0_1009/Subregion_12/0_1009_12_3_2.png, 0
Patient_0_1009/Subregion_12/0_1009_12_3_3.png, 0
Patient_0_1009/Subregion_12/0_1009_12_3_4.png, 0
Patient_0_1009/Subregion_12/0_1009_12_3_5.png, 0
Patient_0_1009/Subregion_12/0_1009_12_3_6.png, 0
Patient_0_1009/Subregion_12/0_1009_12_3_7.png, 0
Patient_0_1009/Subregion_12/0_1009_12_3_8.png, 0
Patient_0_1009/Subregion_12/0_1009_12_4_1.png, 0
Patient_0_1009/Subregion_12/0_1009_12_4_11.png, 0
Patient_0_1009/Subregion_12/0_1009_12_4_3.png, 0
Patient_0_1009/Subregion_12/0_1009_12_4_4.png, 0
Patient_0_1009/Subregion_12/0_1009_12_4_5.png, 0
Patient_0_1009/Subregion_12/0_1009_12_4_6.png, 0
Patient_0_1009/Subregion_12/0_1009_12_4_7.png, 0
Patient_0_1009/Subregion_12/0_1009_12_4_8.png, 0
Patient_0_1009/Subregion_12/0_1009_12_5_1.png, 0
Patient_0_1009/Subregion_13/0_1009_13_0_1.png, 0
Patient_0_1009/Subregion_13/0_1009_13_0_2.png, 0
Patient_0_1009/Subregion_13/0_1009_13_0_3.png, 0
Patient_0_1009/Subregion_13/0_1009_13_0_4.png, 0
Patient_0_1009/Subregion_13/0_1009_13_0_5.png, 0
Patient_0_1009/Subregion_13/0_1009_13_0_6.png, 0
Patient_0_1009/Subregion_13/0_1009_13_0_7.png, 0
Patient_0_1009/Subregion_13/0_1009_13_1_0.png, 0
Patient_0_1009/Subregion_13/0_1009_13_1_1.png, 0
Patient_0_1009/Subregion_13/0_1009_13_1_2.png, 0
Patient_0_1009/Subregion_13/0_1009_13_1_3.png, 0
Patient_0_1009/Subregion_13/0_1009_13_1_4.png, 0
Patient_0_1009/Subregion_13/0_1009_13_1_5.png, 0
Patient_0_1009/Subregion_13/0_1009_13_1_6.png, 0
Patient_0_1009/Subregion_13/0_1009_13_2_0.png, 0
Patient_0_1009/Subregion_13/0_1009_13_2_1.png, 0
Patient_0_1009/Subregion_13/0_1009_13_2_2.png, 0
Patient_0_1009/Subregion_13/0_1009_13_2_3.png, 0
Patient_0_1009/Subregion_13/0_1009_13_2_4.png, 0
Patient_0_1009/Subregion_13/0_1009_13_2_5.png, 0
Patient_0_1009/Subregion_13/0_1009_13_2_6.png, 0
Patient_0_1009/Subregion_13/0_1009_13_3_0.png, 0
Patient_0_1009/Subregion_13/0_1009_13_3_1.png, 0
Patient_0_1009/Subregion_13/0_1009_13_3_2.png, 0
Patient_0_1009/Subregion_13/0_1009_13_3_3.png, 0
Patient_0_1009/Subregion_13/0_1009_13_3_4.png, 0
Patient_0_1009/Subregion_13/0_1009_13_3_5.png, 0
Patient_0_1009/Subregion_13/0_1009_13_4_0.png, 0
Patient_0_1009/Subregion_13/0_1009_13_4_1.png, 0
Patient_0_1009/Subregion_13/0_1009_13_4_2.png, 0
Patient_0_1009/Subregion_13/0_1009_13_4_3.png, 0
Patient_0_1009/Subregion_13/0_1009_13_4_4.png, 0
Patient_0_1009/Subregion_13/0_1009_13_4_5.png, 0
Patient_0_1009/Subregion_13/0_1009_13_5_0.png, 0
Patient_0_1009/Subregion_13/0_1009_13_5_1.png, 0
Patient_0_1009/Subregion_13/0_1009_13_5_2.png, 0
Patient_0_1009/Subregion_13/0_1009_13_5_3.png, 0
Patient_0_1009/Subregion_13/0_1009_13_5_4.png, 0
Patient_0_1009/Subregion_13/0_1009_13_5_5.png, 0
Patient_0_1009/Subregion_13/0_1009_13_6_0.png, 0
Patient_0_1009/Subregion_13/0_1009_13_6_1.png, 0
Patient_0_1009/Subregion_13/0_1009_13_6_2.png, 0
Patient_0_1009/Subregion_13/0_1009_13_6_3.png, 0
Patient_0_1009/Subregion_13/0_1009_13_6_4.png, 0
Patient_0_1009/Subregion_13/0_1009_13_6_7.png, 0
Patient_0_1009/Subregion_13/0_1009_13_7_0.png, 0
Patient_0_1009/Subregion_13/0_1009_13_7_1.png, 0
Patient_0_1009/Subregion_13/0_1009_13_7_2.png, 0
Patient_0_1009/Subregion_13/0_1009_13_7_3.png, 0
Patient_0_1009/Subregion_2/0_1009_2_0_1.png, 0
Patient_0_1009/Subregion_2/0_1009_2_0_2.png, 0
Patient_0_1009/Subregion_2/0_1009_2_0_3.png, 0
Patient_0_1009/Subregion_2/0_1009_2_0_4.png, 0
Patient_0_1009/Subregion_2/0_1009_2_0_5.png, 0
Patient_0_1009/Subregion_2/0_1009_2_1_0.png, 0
Patient_0_1009/Subregion_2/0_1009_2_1_1.png, 0
Patient_0_1009/Subregion_2/0_1009_2_1_2.png, 0
Patient_0_1009/Subregion_2/0_1009_2_1_3.png, 0
Patient_0_1009/Subregion_2/0_1009_2_1_4.png, 0
Patient_0_1009/Subregion_2/0_1009_2_1_5.png, 0
Patient_0_1009/Subregion_2/0_1009_2_2_0.png, 0
Patient_0_1009/Subregion_2/0_1009_2_2_1.png, 0
Patient_0_1009/Subregion_2/0_1009_2_2_2.png, 0
Patient_0_1009/Subregion_2/0_1009_2_2_3.png, 0
Patient_0_1009/Subregion_2/0_1009_2_2_4.png, 0
Patient_0_1009/Subregion_2/0_1009_2_2_5.png, 0
Patient_0_1009/Subregion_2/0_1009_2_3_0.png, 0
Patient_0_1009/Subregion_2/0_1009_2_3_1.png, 0
Patient_0_1009/Subregion_2/0_1009_2_3_2.png, 0
Patient_0_1009/Subregion_2/0_1009_2_3_3.png, 0
Patient_0_1009/Subregion_2/0_1009_2_3_4.png, 0
Patient_0_1009/Subregion_2/0_1009_2_3_5.png, 0
Patient_0_1009/Subregion_2/0_1009_2_4_0.png, 0
Patient_0_1009/Subregion_2/0_1009_2_4_1.png, 0
Patient_0_1009/Subregion_2/0_1009_2_4_2.png, 0
Patient_0_1009/Subregion_2/0_1009_2_4_3.png, 0
Patient_0_1009/Subregion_2/0_1009_2_4_4.png, 0
Patient_0_1009/Subregion_2/0_1009_2_5_0.png, 0
Patient_0_1009/Subregion_2/0_1009_2_5_1.png, 0
Patient_0_1009/Subregion_2/0_1009_2_5_2.png, 0
Patient_0_1009/Subregion_2/0_1009_2_5_3.png, 0
Patient_0_1009/Subregion_2/0_1009_2_5_4.png, 0
Patient_0_1009/Subregion_2/0_1009_2_6_0.png, 0
Patient_0_1009/Subregion_2/0_1009_2_6_1.png, 0
Patient_0_1009/Subregion_2/0_1009_2_6_2.png, 0
Patient_0_1009/Subregion_2/0_1009_2_6_3.png, 0
Patient_0_1009/Subregion_2/0_1009_2_7_0.png, 0
Patient_0_1009/Subregion_2/0_1009_2_7_1.png, 0
Patient_0_1009/Subregion_2/0_1009_2_7_2.png, 0
Patient_0_1009/Subregion_2/0_1009_2_7_3.png, 0
Patient_0_1009/Subregion_2/0_1009_2_8_0.png, 0
Patient_0_1009/Subregion_2/0_1009_2_8_1.png, 0
Patient_0_1009/Subregion_2/0_1009_2_8_2.png, 0
Patient_0_1009/Subregion_2/0_1009_2_9_0.png, 0
Patient_0_1009/Subregion_2/0_1009_2_9_1.png, 0
Patient_0_1009/Subregion_2/0_1009_2_9_2.png, 0
Patient_0_1009/Subregion_3/0_1009_3_0_0.png, 0
Patient_0_1009/Subregion_3/0_1009_3_0_1.png, 0
Patient_0_1009/Subregion_3/0_1009_3_0_2.png, 0
Patient_0_1009/Subregion_3/0_1009_3_0_3.png, 0
Patient_0_1009/Subregion_3/0_1009_3_0_4.png, 0
Patient_0_1009/Subregion_3/0_1009_3_0_5.png, 0
Patient_0_1009/Subregion_3/0_1009_3_0_6.png, 0
Patient_0_1009/Subregion_3/0_1009_3_1_0.png, 0
Patient_0_1009/Subregion_3/0_1009_3_1_1.png, 0
Patient_0_1009/Subregion_3/0_1009_3_1_2.png, 0
Patient_0_1009/Subregion_3/0_1009_3_1_3.png, 0
Patient_0_1009/Subregion_3/0_1009_3_1_4.png, 0
Patient_0_1009/Subregion_3/0_1009_3_1_5.png, 0
Patient_0_1009/Subregion_3/0_1009_3_1_6.png, 0
Patient_0_1009/Subregion_3/0_1009_3_2_0.png, 0
Patient_0_1009/Subregion_3/0_1009_3_2_1.png, 0
Patient_0_1009/Subregion_3/0_1009_3_2_2.png, 0
Patient_0_1009/Subregion_3/0_1009_3_2_3.png, 0
Patient_0_1009/Subregion_3/0_1009_3_2_4.png, 0
Patient_0_1009/Subregion_3/0_1009_3_3_0.png, 0
Patient_0_1009/Subregion_3/0_1009_3_3_1.png, 0
Patient_0_1009/Subregion_3/0_1009_3_3_2.png, 0
Patient_0_1009/Subregion_3/0_1009_3_3_3.png, 0
Patient_0_1009/Subregion_3/0_1009_3_4_0.png, 0
Patient_0_1009/Subregion_3/0_1009_3_4_1.png, 0
Patient_0_1009/Subregion_3/0_1009_3_4_2.png, 0
Patient_0_1009/Subregion_3/0_1009_3_4_3.png, 0
Patient_0_1009/Subregion_3/0_1009_3_5_0.png, 0
Patient_0_1009/Subregion_4/0_1009_4_0_2.png, 0
Patient_0_1009/Subregion_4/0_1009_4_0_3.png, 0
Patient_0_1009/Subregion_4/0_1009_4_0_4.png, 0
Patient_0_1009/Subregion_4/0_1009_4_0_5.png, 0
Patient_0_1009/Subregion_4/0_1009_4_1_0.png, 0
Patient_0_1009/Subregion_4/0_1009_4_1_1.png, 0
Patient_0_1009/Subregion_4/0_1009_4_1_2.png, 0
Patient_0_1009/Subregion_4/0_1009_4_1_3.png, 0
Patient_0_1009/Subregion_4/0_1009_4_1_4.png, 0
Patient_0_1009/Subregion_4/0_1009_4_1_5.png, 0
Patient_0_1009/Subregion_4/0_1009_4_2_1.png, 0
Patient_0_1009/Subregion_4/0_1009_4_2_2.png, 0
Patient_0_1009/Subregion_4/0_1009_4_2_3.png, 0
Patient_0_1009/Subregion_4/0_1009_4_2_4.png, 0
Patient_0_1009/Subregion_4/0_1009_4_2_5.png, 0
Patient_0_1009/Subregion_4/0_1009_4_3_0.png, 0
Patient_0_1009/Subregion_4/0_1009_4_3_1.png, 0
Patient_0_1009/Subregion_4/0_1009_4_3_2.png, 0
Patient_0_1009/Subregion_4/0_1009_4_3_3.png, 0
Patient_0_1009/Subregion_4/0_1009_4_3_4.png, 0
Patient_0_1009/Subregion_4/0_1009_4_3_5.png, 0
Patient_0_1009/Subregion_4/0_1009_4_4_0.png, 0
Patient_0_1009/Subregion_4/0_1009_4_4_1.png, 0
Patient_0_1009/Subregion_4/0_1009_4_4_2.png, 0
Patient_0_1009/Subregion_4/0_1009_4_4_3.png, 0
Patient_0_1009/Subregion_4/0_1009_4_4_4.png, 0
Patient_0_1009/Subregion_4/0_1009_4_5_0.png, 0
Patient_0_1009/Subregion_4/0_1009_4_5_1.png, 0
Patient_0_1009/Subregion_5/0_1009_5_0_1.png, 0
Patient_0_1009/Subregion_5/0_1009_5_0_2.png, 0
Patient_0_1009/Subregion_5/0_1009_5_0_3.png, 0
Patient_0_1009/Subregion_5/0_1009_5_0_4.png, 0
Patient_0_1009/Subregion_5/0_1009_5_0_5.png, 0
Patient_0_1009/Subregion_5/0_1009_5_1_0.png, 0
Patient_0_1009/Subregion_5/0_1009_5_1_1.png, 0
Patient_0_1009/Subregion_5/0_1009_5_1_2.png, 0
Patient_0_1009/Subregion_5/0_1009_5_1_3.png, 0
Patient_0_1009/Subregion_5/0_1009_5_1_4.png, 0
Patient_0_1009/Subregion_5/0_1009_5_2_0.png, 0
Patient_0_1009/Subregion_5/0_1009_5_2_1.png, 0
Patient_0_1009/Subregion_5/0_1009_5_2_2.png, 0
Patient_0_1009/Subregion_5/0_1009_5_2_3.png, 0
Patient_0_1009/Subregion_5/0_1009_5_2_5.png, 0
Patient_0_1009/Subregion_5/0_1009_5_3_0.png, 0
Patient_0_1009/Subregion_5/0_1009_5_3_1.png, 0
Patient_0_1009/Subregion_5/0_1009_5_3_2.png, 0
Patient_0_1009/Subregion_5/0_1009_5_3_3.png, 0
Patient_0_1009/Subregion_5/0_1009_5_4_0.png, 0
Patient_0_1009/Subregion_5/0_1009_5_4_1.png, 0
Patient_0_1009/Subregion_5/0_1009_5_4_3.png, 0
Patient_0_1009/Subregion_5/0_1009_5_4_4.png, 0
Patient_0_1009/Subregion_5/0_1009_5_4_5.png, 0
Patient_0_1009/Subregion_6/0_1009_6_0_2.png, 0
Patient_0_1009/Subregion_6/0_1009_6_0_3.png, 0
Patient_0_1009/Subregion_6/0_1009_6_0_4.png, 0
Patient_0_1009/Subregion_6/0_1009_6_0_5.png, 0
Patient_0_1009/Subregion_6/0_1009_6_0_6.png, 0
Patient_0_1009/Subregion_6/0_1009_6_0_7.png, 0
Patient_0_1009/Subregion_6/0_1009_6_0_8.png, 0
Patient_0_1009/Subregion_6/0_1009_6_1_1.png, 0
Patient_0_1009/Subregion_6/0_1009_6_1_3.png, 0
Patient_0_1009/Subregion_6/0_1009_6_1_4.png, 0
Patient_0_1009/Subregion_6/0_1009_6_1_5.png, 0
Patient_0_1009/Subregion_6/0_1009_6_1_6.png, 0
Patient_0_1009/Subregion_6/0_1009_6_1_7.png, 0
Patient_0_1009/Subregion_6/0_1009_6_1_8.png, 0
Patient_0_1009/Subregion_6/0_1009_6_2_1.png, 0
Patient_0_1009/Subregion_6/0_1009_6_2_2.png, 0
Patient_0_1009/Subregion_6/0_1009_6_2_3.png, 0
Patient_0_1009/Subregion_6/0_1009_6_2_4.png, 0
Patient_0_1009/Subregion_6/0_1009_6_2_5.png, 0
Patient_0_1009/Subregion_6/0_1009_6_2_6.png, 0
Patient_0_1009/Subregion_6/0_1009_6_2_7.png, 0
Patient_0_1009/Subregion_6/0_1009_6_2_8.png, 0
Patient_0_1009/Subregion_6/0_1009_6_3_0.png, 0
Patient_0_1009/Subregion_6/0_1009_6_3_1.png, 0
Patient_0_1009/Subregion_6/0_1009_6_3_2.png, 0
Patient_0_1009/Subregion_6/0_1009_6_3_3.png, 0
Patient_0_1009/Subregion_6/0_1009_6_3_4.png, 0
Patient_0_1009/Subregion_6/0_1009_6_3_5.png, 0
Patient_0_1009/Subregion_6/0_1009_6_3_6.png, 0
Patient_0_1009/Subregion_6/0_1009_6_3_7.png, 0
Patient_0_1009/Subregion_6/0_1009_6_3_8.png, 0
Patient_0_1009/Subregion_6/0_1009_6_4_1.png, 0
Patient_0_1009/Subregion_6/0_1009_6_4_2.png, 0
Patient_0_1009/Subregion_6/0_1009_6_4_3.png, 0
Patient_0_1009/Subregion_6/0_1009_6_4_4.png, 0
Patient_0_1009/Subregion_6/0_1009_6_4_5.png, 0
Patient_0_1009/Subregion_6/0_1009_6_4_6.png, 0
Patient_0_1009/Subregion_6/0_1009_6_4_7.png, 0
Patient_0_1009/Subregion_6/0_1009_6_4_8.png, 0
Patient_0_1009/Subregion_6/0_1009_6_5_2.png, 0
Patient_0_1009/Subregion_6/0_1009_6_5_3.png, 0
Patient_0_1009/Subregion_6/0_1009_6_5_4.png, 0
Patient_0_1009/Subregion_6/0_1009_6_5_5.png, 0
Patient_0_1009/Subregion_6/0_1009_6_5_6.png, 0
Patient_0_1009/Subregion_6/0_1009_6_5_7.png, 0
Patient_0_1009/Subregion_6/0_1009_6_5_8.png, 0
Patient_0_1009/Subregion_7/0_1009_7_0_1.png, 0
Patient_0_1009/Subregion_7/0_1009_7_0_2.png, 0
Patient_0_1009/Subregion_7/0_1009_7_0_3.png, 0
Patient_0_1009/Subregion_7/0_1009_7_0_4.png, 0
Patient_0_1009/Subregion_7/0_1009_7_1_0.png, 0
Patient_0_1009/Subregion_7/0_1009_7_1_1.png, 0
Patient_0_1009/Subregion_7/0_1009_7_1_2.png, 0
Patient_0_1009/Subregion_7/0_1009_7_1_3.png, 0
Patient_0_1009/Subregion_7/0_1009_7_2_0.png, 0
Patient_0_1009/Subregion_7/0_1009_7_2_1.png, 0
Patient_0_1009/Subregion_7/0_1009_7_2_2.png, 0
Patient_0_1009/Subregion_7/0_1009_7_2_3.png, 0
Patient_0_1009/Subregion_7/0_1009_7_3_0.png, 0
Patient_0_1009/Subregion_7/0_1009_7_4_0.png, 0
Patient_0_1009/Subregion_8/0_1009_8_0_0.png, 0
Patient_0_1009/Subregion_8/0_1009_8_0_1.png, 0
Patient_0_1009/Subregion_8/0_1009_8_0_2.png, 0
Patient_0_1009/Subregion_8/0_1009_8_0_3.png, 0
Patient_0_1009/Subregion_8/0_1009_8_0_4.png, 0
Patient_0_1009/Subregion_8/0_1009_8_0_5.png, 0
Patient_0_1009/Subregion_8/0_1009_8_1_0.png, 0
Patient_0_1009/Subregion_8/0_1009_8_1_1.png, 0
Patient_0_1009/Subregion_8/0_1009_8_1_2.png, 0
Patient_0_1009/Subregion_8/0_1009_8_1_3.png, 0
Patient_0_1009/Subregion_8/0_1009_8_1_4.png, 0
Patient_0_1009/Subregion_8/0_1009_8_1_5.png, 0
Patient_0_1009/Subregion_8/0_1009_8_2_0.png, 0
Patient_0_1009/Subregion_8/0_1009_8_2_1.png, 0
Patient_0_1009/Subregion_8/0_1009_8_2_2.png, 0
Patient_0_1009/Subregion_8/0_1009_8_2_3.png, 0
Patient_0_1009/Subregion_8/0_1009_8_2_4.png, 0
Patient_0_1009/Subregion_8/0_1009_8_2_5.png, 0
Patient_0_1009/Subregion_8/0_1009_8_2_6.png, 0
Patient_0_1009/Subregion_8/0_1009_8_3_0.png, 0
Patient_0_1009/Subregion_8/0_1009_8_3_1.png, 0
Patient_0_1009/Subregion_8/0_1009_8_3_2.png, 0
Patient_0_1009/Subregion_8/0_1009_8_3_3.png, 0
Patient_0_1009/Subregion_8/0_1009_8_3_4.png, 0
Patient_0_1009/Subregion_8/0_1009_8_4_0.png, 0
Patient_0_1009/Subregion_8/0_1009_8_4_1.png, 0
Patient_0_1009/Subregion_8/0_1009_8_4_2.png, 0
Patient_0_1009/Subregion_8/0_1009_8_4_3.png, 0
Patient_0_1009/Subregion_8/0_1009_8_4_4.png, 0
Patient_0_1009/Subregion_8/0_1009_8_5_0.png, 0
Patient_0_1009/Subregion_8/0_1009_8_5_1.png, 0
Patient_0_1009/Subregion_8/0_1009_8_5_2.png, 0
Patient_0_1009/Subregion_8/0_1009_8_5_3.png, 0
Patient_0_1009/Subregion_8/0_1009_8_5_4.png, 0
Patient_0_1009/Subregion_9/0_1009_9_0_0.png, 0
Patient_0_1009/Subregion_9/0_1009_9_0_1.png, 0
Patient_0_1009/Subregion_9/0_1009_9_0_2.png, 0
Patient_0_1009/Subregion_9/0_1009_9_0_3.png, 0
Patient_0_1009/Subregion_9/0_1009_9_0_4.png, 0
Patient_0_1009/Subregion_9/0_1009_9_0_5.png, 0
Patient_0_1009/Subregion_9/0_1009_9_1_0.png, 0
Patient_0_1009/Subregion_9/0_1009_9_1_1.png, 0
Patient_0_1009/Subregion_9/0_1009_9_1_2.png, 0
Patient_0_1009/Subregion_9/0_1009_9_1_3.png, 0
Patient_0_1009/Subregion_9/0_1009_9_1_4.png, 0
Patient_0_1009/Subregion_9/0_1009_9_2_0.png, 0
Patient_0_1009/Subregion_9/0_1009_9_2_1.png, 0
Patient_0_1009/Subregion_9/0_1009_9_2_2.png, 0
Patient_0_1009/Subregion_9/0_1009_9_2_3.png, 0
Patient_0_1009/Subregion_9/0_1009_9_2_4.png, 0
Patient_0_1009/Subregion_9/0_1009_9_3_0.png, 0
Patient_0_1009/Subregion_9/0_1009_9_3_1.png, 0
Patient_0_1009/Subregion_9/0_1009_9_3_2.png, 0
Patient_0_1009/Subregion_9/0_1009_9_3_3.png, 0
Patient_0_1009/Subregion_9/0_1009_9_3_4.png, 0
Patient_0_1009/Subregion_9/0_1009_9_4_0.png, 0
Patient_0_1009/Subregion_9/0_1009_9_4_1.png, 0
Patient_0_1009/Subregion_9/0_1009_9_4_2.png, 0
Patient_0_1009/Subregion_9/0_1009_9_4_3.png, 0
Patient_0_1009/Subregion_9/0_1009_9_4_4.png, 0
Patient_0_1009/Subregion_9/0_1009_9_5_0.png, 0
Patient_0_1009/Subregion_9/0_1009_9_5_1.png, 0
Patient_0_1009/Subregion_9/0_1009_9_5_2.png, 0
Patient_0_1009/Subregion_9/0_1009_9_5_3.png, 0
Patient_0_1009/Subregion_9/0_1009_9_6_0.png, 0
Patient_0_1009/Subregion_9/0_1009_9_6_1.png, 0
Patient_0_1009/Subregion_9/0_1009_9_6_2.png, 0
Patient_0_1009/Subregion_9/0_1009_9_6_3.png, 0
Patient_0_1009/Subregion_9/0_1009_9_6_4.png, 0
