file_image, manual_annot
Patient_10_11009/Subregion_0/10_11009_0_1_0.png, 0
Patient_10_11009/Subregion_0/10_11009_0_1_1.png, 0
Patient_10_11009/Subregion_0/10_11009_0_1_2.png, 0
Patient_10_11009/Subregion_0/10_11009_0_2_1.png, 0
Patient_10_11009/Subregion_0/10_11009_0_2_2.png, 0
Patient_10_11009/Subregion_0/10_11009_0_2_3.png, 0
Patient_10_11009/Subregion_0/10_11009_0_2_4.png, 0
Patient_10_11009/Subregion_0/10_11009_0_2_5.png, 0
Patient_10_11009/Subregion_0/10_11009_0_2_6.png, 0
Patient_10_11009/Subregion_0/10_11009_0_2_7.png, 0
Patient_10_11009/Subregion_0/10_11009_0_3_0.png, 0
Patient_10_11009/Subregion_0/10_11009_0_3_1.png, 0
Patient_10_11009/Subregion_0/10_11009_0_3_3.png, 0
Patient_10_11009/Subregion_0/10_11009_0_3_4.png, 0
Patient_10_11009/Subregion_0/10_11009_0_3_5.png, 0
Patient_10_11009/Subregion_0/10_11009_0_3_6.png, 0
Patient_10_11009/Subregion_0/10_11009_0_3_7.png, 0
Patient_10_11009/Subregion_0/10_11009_0_3_8.png, 0
Patient_10_11009/Subregion_0/10_11009_0_4_0.png, 0
Patient_10_11009/Subregion_0/10_11009_0_4_1.png, 0
Patient_10_11009/Subregion_0/10_11009_0_4_10.png, 0
Patient_10_11009/Subregion_0/10_11009_0_4_2.png, 0
Patient_10_11009/Subregion_0/10_11009_0_4_3.png, 0
Patient_10_11009/Subregion_0/10_11009_0_4_4.png, 0
Patient_10_11009/Subregion_0/10_11009_0_4_5.png, 0
Patient_10_11009/Subregion_0/10_11009_0_4_6.png, 0
Patient_10_11009/Subregion_0/10_11009_0_4_7.png, 0
Patient_10_11009/Subregion_0/10_11009_0_4_8.png, 0
Patient_10_11009/Subregion_0/10_11009_0_5_0.png, 0
Patient_10_11009/Subregion_0/10_11009_0_5_1.png, 0
Patient_10_11009/Subregion_0/10_11009_0_5_4.png, 0
Patient_10_11009/Subregion_0/10_11009_0_5_6.png, 0
Patient_10_11009/Subregion_0/10_11009_0_5_7.png, 0
Patient_10_11009/Subregion_0/10_11009_0_5_8.png, 0
Patient_10_11009/Subregion_0/10_11009_0_6_0.png, 0
Patient_10_11009/Subregion_0/10_11009_0_6_1.png, 0
Patient_10_11009/Subregion_1/10_11009_1_0_8.png, 0
Patient_10_11009/Subregion_1/10_11009_1_1_4.png, 0
Patient_10_11009/Subregion_1/10_11009_1_1_5.png, 0
Patient_10_11009/Subregion_1/10_11009_1_1_6.png, 0
Patient_10_11009/Subregion_1/10_11009_1_1_7.png, 0
Patient_10_11009/Subregion_1/10_11009_1_1_8.png, 0
Patient_10_11009/Subregion_1/10_11009_1_10_6.png, 0
Patient_10_11009/Subregion_1/10_11009_1_10_7.png, 0
Patient_10_11009/Subregion_1/10_11009_1_10_8.png, 0
Patient_10_11009/Subregion_1/10_11009_1_11_0.png, 0
Patient_10_11009/Subregion_1/10_11009_1_11_4.png, 0
Patient_10_11009/Subregion_1/10_11009_1_11_5.png, 0
Patient_10_11009/Subregion_1/10_11009_1_11_6.png, 0
Patient_10_11009/Subregion_1/10_11009_1_11_7.png, 0
Patient_10_11009/Subregion_1/10_11009_1_11_8.png, 0
Patient_10_11009/Subregion_1/10_11009_1_2_0.png, 0
Patient_10_11009/Subregion_1/10_11009_1_2_1.png, 0
Patient_10_11009/Subregion_1/10_11009_1_2_2.png, 0
Patient_10_11009/Subregion_1/10_11009_1_2_3.png, 0
Patient_10_11009/Subregion_1/10_11009_1_2_4.png, 0
Patient_10_11009/Subregion_1/10_11009_1_2_5.png, 0
Patient_10_11009/Subregion_1/10_11009_1_2_6.png, 0
Patient_10_11009/Subregion_1/10_11009_1_2_7.png, 0
Patient_10_11009/Subregion_1/10_11009_1_2_8.png, 0
Patient_10_11009/Subregion_1/10_11009_1_3_1.png, 0
Patient_10_11009/Subregion_1/10_11009_1_3_2.png, 0
Patient_10_11009/Subregion_1/10_11009_1_3_3.png, 0
Patient_10_11009/Subregion_1/10_11009_1_3_4.png, 0
Patient_10_11009/Subregion_1/10_11009_1_3_5.png, 0
Patient_10_11009/Subregion_1/10_11009_1_3_6.png, 0
Patient_10_11009/Subregion_1/10_11009_1_3_7.png, 0
Patient_10_11009/Subregion_1/10_11009_1_3_8.png, 0
Patient_10_11009/Subregion_1/10_11009_1_4_0.png, 0
Patient_10_11009/Subregion_1/10_11009_1_4_2.png, 0
Patient_10_11009/Subregion_1/10_11009_1_4_3.png, 0
Patient_10_11009/Subregion_1/10_11009_1_4_4.png, 0
Patient_10_11009/Subregion_1/10_11009_1_4_5.png, 0
Patient_10_11009/Subregion_1/10_11009_1_4_6.png, 0
Patient_10_11009/Subregion_1/10_11009_1_4_7.png, 0
Patient_10_11009/Subregion_1/10_11009_1_5_1.png, 0
Patient_10_11009/Subregion_1/10_11009_1_5_2.png, 0
Patient_10_11009/Subregion_1/10_11009_1_5_3.png, 0
Patient_10_11009/Subregion_1/10_11009_1_5_4.png, 0
Patient_10_11009/Subregion_1/10_11009_1_5_5.png, 0
Patient_10_11009/Subregion_1/10_11009_1_5_6.png, 0
Patient_10_11009/Subregion_1/10_11009_1_6_1.png, 0
Patient_10_11009/Subregion_1/10_11009_1_6_2.png, 0
Patient_10_11009/Subregion_1/10_11009_1_6_3.png, 0
Patient_10_11009/Subregion_1/10_11009_1_6_4.png, 0
Patient_10_11009/Subregion_1/10_11009_1_6_5.png, 0
Patient_10_11009/Subregion_1/10_11009_1_7_0.png, 0
Patient_10_11009/Subregion_1/10_11009_1_7_1.png, 0
Patient_10_11009/Subregion_1/10_11009_1_7_2.png, 0
Patient_10_11009/Subregion_1/10_11009_1_7_3.png, 0
Patient_10_11009/Subregion_1/10_11009_1_8_0.png, 0
Patient_10_11009/Subregion_1/10_11009_1_8_1.png, 0
Patient_10_11009/Subregion_1/10_11009_1_8_2.png, 0
Patient_10_11009/Subregion_1/10_11009_1_8_3.png, 0
Patient_10_11009/Subregion_1/10_11009_1_8_7.png, 0
Patient_10_11009/Subregion_1/10_11009_1_8_8.png, 0
Patient_10_11009/Subregion_1/10_11009_1_9_7.png, 0
Patient_10_11009/Subregion_1/10_11009_1_9_8.png, 0
Patient_10_11009/Subregion_2/10_11009_2_0_0.png, 0
Patient_10_11009/Subregion_2/10_11009_2_0_6.png, 0
Patient_10_11009/Subregion_2/10_11009_2_0_7.png, 0
Patient_10_11009/Subregion_2/10_11009_2_0_8.png, 0
Patient_10_11009/Subregion_2/10_11009_2_1_4.png, 0
Patient_10_11009/Subregion_2/10_11009_2_1_5.png, 0
Patient_10_11009/Subregion_2/10_11009_2_1_6.png, 0
Patient_10_11009/Subregion_2/10_11009_2_1_7.png, 0
Patient_10_11009/Subregion_2/10_11009_2_1_8.png, 0
Patient_10_11009/Subregion_2/10_11009_2_1_9.png, 0
Patient_10_11009/Subregion_2/10_11009_2_2_1.png, 0
Patient_10_11009/Subregion_2/10_11009_2_2_10.png, 0
Patient_10_11009/Subregion_2/10_11009_2_2_3.png, 0
Patient_10_11009/Subregion_2/10_11009_2_2_4.png, 0
Patient_10_11009/Subregion_2/10_11009_2_2_5.png, 0
Patient_10_11009/Subregion_2/10_11009_2_2_6.png, 0
Patient_10_11009/Subregion_2/10_11009_2_2_7.png, 0
Patient_10_11009/Subregion_2/10_11009_2_2_8.png, 0
Patient_10_11009/Subregion_2/10_11009_2_3_0.png, 0
Patient_10_11009/Subregion_2/10_11009_2_3_1.png, 0
Patient_10_11009/Subregion_2/10_11009_2_3_2.png, 0
Patient_10_11009/Subregion_2/10_11009_2_3_3.png, 0
Patient_10_11009/Subregion_2/10_11009_2_3_4.png, 0
Patient_10_11009/Subregion_2/10_11009_2_3_5.png, 0
Patient_10_11009/Subregion_2/10_11009_2_3_6.png, 0
Patient_10_11009/Subregion_2/10_11009_2_3_7.png, 0
Patient_10_11009/Subregion_2/10_11009_2_3_8.png, 0
Patient_10_11009/Subregion_2/10_11009_2_4_1.png, 0
Patient_10_11009/Subregion_2/10_11009_2_4_10.png, 0
Patient_10_11009/Subregion_2/10_11009_2_4_2.png, 0
Patient_10_11009/Subregion_2/10_11009_2_4_3.png, 0
Patient_10_11009/Subregion_2/10_11009_2_4_4.png, 0
Patient_10_11009/Subregion_2/10_11009_2_4_5.png, 0
Patient_10_11009/Subregion_2/10_11009_2_4_6.png, 0
Patient_10_11009/Subregion_2/10_11009_2_5_0.png, 0
Patient_10_11009/Subregion_2/10_11009_2_5_1.png, 0
Patient_10_11009/Subregion_2/10_11009_2_5_10.png, 0
Patient_10_11009/Subregion_2/10_11009_2_5_3.png, 0
Patient_10_11009/Subregion_2/10_11009_2_5_4.png, 0
Patient_10_11009/Subregion_2/10_11009_2_5_5.png, 0
Patient_10_11009/Subregion_2/10_11009_2_6_0.png, 0
Patient_10_11009/Subregion_2/10_11009_2_6_1.png, 0
Patient_10_11009/Subregion_2/10_11009_2_6_2.png, 0
Patient_10_11009/Subregion_2/10_11009_2_6_3.png, 0
Patient_10_11009/Subregion_2/10_11009_2_7_0.png, 0
Patient_10_11009/Subregion_2/10_11009_2_7_1.png, 0
Patient_10_11009/Subregion_2/10_11009_2_7_10.png, 0
Patient_10_11009/Subregion_2/10_11009_2_7_2.png, 0
Patient_10_11009/Subregion_2/10_11009_2_8_1.png, 0
Patient_10_11009/Subregion_2/10_11009_2_8_2.png, 0
Patient_10_11009/Subregion_3/10_11009_3_0_5.png, 0
Patient_10_11009/Subregion_3/10_11009_3_0_6.png, 0
Patient_10_11009/Subregion_3/10_11009_3_0_7.png, 0
Patient_10_11009/Subregion_3/10_11009_3_0_8.png, 0
Patient_10_11009/Subregion_3/10_11009_3_0_9.png, 0
Patient_10_11009/Subregion_3/10_11009_3_1_5.png, 0
Patient_10_11009/Subregion_3/10_11009_3_1_6.png, 0
Patient_10_11009/Subregion_3/10_11009_3_1_7.png, 0
Patient_10_11009/Subregion_3/10_11009_3_1_8.png, 0
Patient_10_11009/Subregion_3/10_11009_3_1_9.png, 0
Patient_10_11009/Subregion_3/10_11009_3_10_0.png, 0
Patient_10_11009/Subregion_3/10_11009_3_2_4.png, 0
Patient_10_11009/Subregion_3/10_11009_3_2_5.png, 0
Patient_10_11009/Subregion_3/10_11009_3_2_6.png, 0
Patient_10_11009/Subregion_3/10_11009_3_2_7.png, 0
Patient_10_11009/Subregion_3/10_11009_3_2_8.png, 0
Patient_10_11009/Subregion_3/10_11009_3_2_9.png, 0
Patient_10_11009/Subregion_3/10_11009_3_3_0.png, 0
Patient_10_11009/Subregion_3/10_11009_3_3_4.png, 0
Patient_10_11009/Subregion_3/10_11009_3_3_5.png, 0
Patient_10_11009/Subregion_3/10_11009_3_3_6.png, 0
Patient_10_11009/Subregion_3/10_11009_3_3_7.png, 0
Patient_10_11009/Subregion_3/10_11009_3_3_8.png, 0
Patient_10_11009/Subregion_3/10_11009_3_3_9.png, 0
Patient_10_11009/Subregion_3/10_11009_3_4_4.png, 0
Patient_10_11009/Subregion_3/10_11009_3_4_5.png, 0
Patient_10_11009/Subregion_3/10_11009_3_4_6.png, 0
Patient_10_11009/Subregion_3/10_11009_3_4_7.png, 0
Patient_10_11009/Subregion_3/10_11009_3_5_3.png, 0
Patient_10_11009/Subregion_3/10_11009_3_5_4.png, 0
Patient_10_11009/Subregion_3/10_11009_3_5_5.png, 0
Patient_10_11009/Subregion_3/10_11009_3_5_6.png, 0
Patient_10_11009/Subregion_3/10_11009_3_5_7.png, 0
Patient_10_11009/Subregion_3/10_11009_3_6_2.png, 0
Patient_10_11009/Subregion_3/10_11009_3_6_3.png, 0
Patient_10_11009/Subregion_3/10_11009_3_6_4.png, 0
Patient_10_11009/Subregion_3/10_11009_3_6_5.png, 0
Patient_10_11009/Subregion_3/10_11009_3_7_0.png, 0
Patient_10_11009/Subregion_3/10_11009_3_7_1.png, 0
Patient_10_11009/Subregion_3/10_11009_3_7_2.png, 0
Patient_10_11009/Subregion_3/10_11009_3_7_3.png, 0
Patient_10_11009/Subregion_3/10_11009_3_7_4.png, 0
Patient_10_11009/Subregion_3/10_11009_3_8_1.png, 0
Patient_10_11009/Subregion_3/10_11009_3_8_2.png, 0
Patient_10_11009/Subregion_3/10_11009_3_8_3.png, 0
Patient_10_11009/Subregion_4/10_11009_4_2_4.png, 0
Patient_10_11009/Subregion_4/10_11009_4_2_5.png, 0
Patient_10_11009/Subregion_4/10_11009_4_2_6.png, 0
Patient_10_11009/Subregion_4/10_11009_4_2_7.png, 0
Patient_10_11009/Subregion_4/10_11009_4_3_0.png, 0
Patient_10_11009/Subregion_4/10_11009_4_3_2.png, 0
Patient_10_11009/Subregion_4/10_11009_4_3_3.png, 0
Patient_10_11009/Subregion_4/10_11009_4_3_4.png, 0
Patient_10_11009/Subregion_4/10_11009_4_3_5.png, 0
Patient_10_11009/Subregion_4/10_11009_4_3_6.png, 0
Patient_10_11009/Subregion_4/10_11009_4_3_7.png, 0
Patient_10_11009/Subregion_4/10_11009_4_4_0.png, 0
Patient_10_11009/Subregion_4/10_11009_4_4_1.png, 0
Patient_10_11009/Subregion_4/10_11009_4_4_2.png, 0
Patient_10_11009/Subregion_4/10_11009_4_4_3.png, 0
Patient_10_11009/Subregion_4/10_11009_4_4_4.png, 0
Patient_10_11009/Subregion_4/10_11009_4_4_5.png, 0
Patient_10_11009/Subregion_4/10_11009_4_4_6.png, 0
Patient_10_11009/Subregion_4/10_11009_4_4_7.png, 0
Patient_10_11009/Subregion_4/10_11009_4_5_0.png, 0
Patient_10_11009/Subregion_4/10_11009_4_5_2.png, 0
Patient_10_11009/Subregion_4/10_11009_4_5_3.png, 0
Patient_10_11009/Subregion_4/10_11009_4_5_4.png, 0
Patient_10_11009/Subregion_4/10_11009_4_5_5.png, 0
Patient_10_11009/Subregion_4/10_11009_4_5_6.png, 0
Patient_10_11009/Subregion_4/10_11009_4_5_7.png, 0
Patient_10_11009/Subregion_4/10_11009_4_6_0.png, 0
Patient_10_11009/Subregion_4/10_11009_4_6_1.png, 0
Patient_10_11009/Subregion_4/10_11009_4_6_2.png, 0
Patient_10_11009/Subregion_4/10_11009_4_6_3.png, 0
Patient_10_11009/Subregion_4/10_11009_4_6_4.png, 0
Patient_10_11009/Subregion_4/10_11009_4_6_5.png, 0
Patient_10_11009/Subregion_4/10_11009_4_6_6.png, 0
Patient_10_11009/Subregion_4/10_11009_4_6_7.png, 0
Patient_10_11009/Subregion_4/10_11009_4_7_1.png, 0
Patient_10_11009/Subregion_4/10_11009_4_7_2.png, 0
Patient_10_11009/Subregion_4/10_11009_4_7_3.png, 0
Patient_10_11009/Subregion_4/10_11009_4_7_4.png, 0
Patient_10_11009/Subregion_4/10_11009_4_7_5.png, 0
Patient_10_11009/Subregion_4/10_11009_4_7_6.png, 0
Patient_10_11009/Subregion_4/10_11009_4_7_7.png, 0
Patient_10_11009/Subregion_4/10_11009_4_8_0.png, 0
Patient_10_11009/Subregion_4/10_11009_4_8_2.png, 0
Patient_10_11009/Subregion_4/10_11009_4_8_4.png, 0
Patient_10_11009/Subregion_4/10_11009_4_8_5.png, 0
Patient_10_11009/Subregion_4/10_11009_4_8_6.png, 0
Patient_10_11009/Subregion_4/10_11009_4_8_7.png, 0
